<?xml version="1.0" encoding="UTF-8" standalone="no"?>
<svg
   xmlns:dc="http://purl.org/dc/elements/1.1/"
   xmlns:cc="http://creativecommons.org/ns#"
   xmlns:rdf="http://www.w3.org/1999/02/22-rdf-syntax-ns#"
   xmlns:svg="http://www.w3.org/2000/svg"
   xmlns="http://www.w3.org/2000/svg"
   xmlns:xlink="http://www.w3.org/1999/xlink"
   width="100mm"
   height="161.8034mm"
   viewBox="0 0 100 161.8034"
   version="1.1"
   id="svg4687">
  <defs id="defs4681">
    <style type="text/css"><![CDATA[
      .pagina, #tetto {
        fill:#1000ff;
        fill-rule:evenodd;
        stroke:black;
        stroke-width:4;
        stroke-linecap:butt;
        stroke-miterlimit:4;
        stroke-dasharray:none;
        stroke-opacity:1;
        paint-order:markers fill stroke;
        fill-opacity:1
      }
      .pagina {
        stroke-linejoin:round;
      }
      #tetto {
        stroke-linejoin:miter;
      }
    ]]></style>
  </defs>
  <metadata
     id="metadata4684">
    <rdf:RDF>
      <cc:Work
         rdf:about="">
        <dc:format>image/svg+xml</dc:format>
        <dc:type
           rdf:resource="http://purl.org/dc/dcmitype/StillImage" />
        <dc:title></dc:title>
        <dc:creator>
          <cc:Agent>
            <dc:title>Marco Bodrato</dc:title>
          </cc:Agent>
        </dc:creator>
        <dc:date>2017</dc:date>
        <dc:subject>
          <rdf:Bag>
            <rdf:li>scuola</rdf:li>
            <rdf:li>school</rdf:li>
          </rdf:Bag>
        </dc:subject>
        <cc:license
           rdf:resource="http://creativecommons.org/licenses/by-sa/4.0/" />
      </cc:Work>
      <cc:License
         rdf:about="http://creativecommons.org/licenses/by-sa/4.0/">
        <cc:permits
           rdf:resource="http://creativecommons.org/ns#Reproduction" />
        <cc:permits
           rdf:resource="http://creativecommons.org/ns#Distribution" />
        <cc:requires
           rdf:resource="http://creativecommons.org/ns#Notice" />
        <cc:requires
           rdf:resource="http://creativecommons.org/ns#Attribution" />
        <cc:permits
           rdf:resource="http://creativecommons.org/ns#DerivativeWorks" />
        <cc:requires
           rdf:resource="http://creativecommons.org/ns#ShareAlike" />
      </cc:License>
    </rdf:RDF>
  </metadata>
  <path class="pagina"
     d="m 2,110 c 29,0 48,20 48,50 0,-50 0,-50 0,-50 0,-30 -19,-50 -48,-50 z"
     id="libro" />
  <use class="pagina"
     xlink:href="#libro"
     id="copialibro"
     transform="matrix(-1,0,0,1,100,0)" />
  <path
     d="M 95.425817,51.9 H 4.574131 L 50,2.7938825 Z"
     id="tetto" />
</svg>
