Ambito;Scuola;Denominazione;CAP;Cod_Comune;Comune;PV;Ind_tipo;Ind_denominazione;civico;local_fraz;Ind_altro;Lat;Long;WEB
PIE03-TO03;TOIC82000L;IC TORINO - GAETANO SALVEMINI;10135;L219;TORINO;TO;VIA;CELESTE NEGARVILLE;30/6;;;45.01909;7.60844;http://www.icsalvemini.gov.it/
PIE26-VCO2;VBIC805003;IC INNOCENZO IX;28861;A534;BACENO;VB;VIA;INNOCENZO IX;2;;;46.25774;8.32101;http://www.innocenzoix.it/
PIE02-TO02;TOIC808002;IC TORINO - LEONARDO DA VINCI;10156;L219;TORINO;TO;VIA;DEGLI ABETI;13;;;45.13075;7.71006;http://icleonardodavincitorino.it/
PIE03-TO03;TOIS04300D;IIS PRIMO LEVI;10135;L219;TORINO;TO;CORSO;UNIONE SOVIETICA;490;;;45.01919;7.6307;http://www.istitutoprimolevi.gov.it/
PIE03-TO03;TOIC866002;IC TORINO - ADELAIDE CAIROLI;10127;L219;TORINO;TO;VIA;TORRAZZA PIEMONTE;10;;;45.01661;7.65592;http://scuolacairoli.gov.it/
PIE03-TO03;TOEE01400B;DD TORINO - CARLO COLLODI;10135;L219;TORINO;TO;CORSO;BENEDETTO CROCE;26;;;45.02051;7.64462;http://www.scuolaelementarecolloditorino.gov.it/
PIE03-TO03;TOMM26100N;TORINO - PIERO CALAMANDREI;10135;L219;TORINO;TO;CORSO;BENEDETTO CROCE;17;;;45.02094;7.64541;http://www.scuolacalamandrei.gov.it/
PIE02-TO02;TOPS22000X;GIORDANO BRUNO;10156;L219;TORINO;TO;VIA;GINO MARINUZZI;1;;;45.11857;7.7082;http://www.gbruno.it/
PIE03-TO03;TOEE02500T;DD TORINO - FRANCA MAZZARELLO;10137;L219;TORINO;TO;VIA;IGNAZIO COLLINO;12;;;45.03875;7.62361;http://www.francamazzarello.it/
PIE06-TO06;TOIC82500Q;IC CONDOVE;10055;C955;CONDOVE;TO;VIA;EDMONDO DE AMICIS;1;;;45.11437;7.3099;
PIE03-TO03;TOIC88200X;IC TORINO - VIA SIDOLI;10135;L219;TORINO;TO;VIA;SIDOLI;10;;;45.02728;7.64702;
PIE03-TO03;TOIS003003;IIS ETTORE MAJORANA;10137;L219;TORINO;TO;VIA;PIETRO FRATTINI;11;;;45.03638;7.62895;http://www.majoranatorino.gov.it/
PIE02-TO02;TOEE02700D;DD TORINO - FRANK;10156;L219;TORINO;TO;VIA;CAVAGNOLO;35;;;45.11594;7.70737;
PIE03-TO03;TOIC8A200N;IC TORINO - PEYRON;10127;L219;TORINO;TO;VIA;VALENZA;71;;;45.02443;7.66791;
PIE01-TO01;TOIC816001;IC TORINO - KING-MILA;10142;L219;TORINO;TO;VIA;ANASTASIO GERMONIO;12;;;45.07288;7.61077;http://www.icking-to.gov.it/
PIE03-TO03;TOIS06400E;IIS COPERNICO-LUXEMBURG;10127;L219;TORINO;TO;CORSO;CAIO PLINIO;2;;;45.02715;7.65501;
PIE16-BI2;BIIC80000D;IC ANDORNO MICCA;13811;A280;ANDORNO MICCA;BI;PIAZZA;SALVO D'ACQUISTO;30;;;45.60935;8.05315;http://www.icandornomicca.it/jo/
PIE02-TO02;TOEE010004;DD TORINO - PARRI;10148;L219;TORINO;TO;STRADA;DI LANZO;147/11;;;45.11599;7.65735;
PIE16-BI2;BIIS00700C;IIS GAE AULENTI;13900;A859;BIELLA;BI;VIALE;MACALLE';54;;;45.55245;8.05309;
PIE12-AL2;ALIC808005;MOLARE - SCUOLA MEDIA STATALE;15074;F281;MOLARE;AL;VIA;SANTUARIO;SNC;LOCALITA' CAMPOROTONDO;;44.61822;8.60046;
PIE15-BI1;BIIS00100D;G. Q. SELLA;13900;A859;BIELLA;BI;VIA;ADDIS ABEBA;20;;;45.55649;8.0583;
PIE02-TO02;TOIC80500E;IC TORINO - GIOVANNI CENA;10156;L219;TORINO;TO;STRADA;SAN MAURO;32;;;45.09975;7.72692;
PIE03-TO03;TOMM28900D;TORINO-C. ALVARO-A. MODIGLIANI;10137;L219;TORINO;TO;VIA;GIACOMO BALLA;27;;;45.04777;7.6254;
PIE17-CN1;CNTF010005;CUNEO - MARIO DELPOZZO;12100;D205;CUNEO;CN;CORSO;ALCIDE DE GASPERI;30;;;44.37645;7.52623;
PIE15-BI1;BIIC81300G;IC BIELLA III;13900;A859;BIELLA;BI;VIA;ADDIS ABEBA;37;;;45.55564;8.05452;
PIE02-TO02;TOEE03400L;DD TORINO - KENNEDY;10146;L219;TORINO;TO;VIA;PASSONI;9;;;45.08306;7.61809;
PIE02-TO02;TOIC810002;IC TORINO - D. M. TUROLDO;10151;L219;TORINO;TO;VIA;DELLE MAGNOLIE;9;;;45.10173;7.63299;
PIE02-TO02;TOPS120003;C. CATTANEO;10146;L219;TORINO;TO;VIA;SOSTEGNO;41/10;;;45.07746;7.61705;
PIE03-TO03;TOEE06900G;DD TORINO - GOBETTI;10137;L219;TORINO;TO;VIA;ROMITA;19;;;45.04766;7.62719;
PIE02-TO02;TOTD290002;RUSSELL - MORO;10151;L219;TORINO;TO;CORSO;MOLISE;58;;;45.10395;7.63852;
PIE15-BI1;BIMM02200B;CPIA BIELLA - VERCELLI;13900;A859;BIELLA;BI;VIA;MAESTRI DEL COMMERCIO;8;;;45.55568;8.04927;
PIE17-CN1;CNIC81000D;ROBILANTE;12017;H377;ROBILANTE;CN;PIAZZA;DELLA PACE;8;;;44.29367;7.51325;http://www.icrobilante.gov.it/
PIE02-TO02;TOTF14000A;ITTS CARLO GRASSI;10148;L219;TORINO;TO;VIA;PAOLO VERONESE;305;;;45.11141;7.66181;http://itisgrassi.it/
PIE07-TO07;TOIC860003;IC GIOVANNI FALCONE - MAPPANO;10071;B960;CASELLE TORINESE;TO;VIA;TIBALDI;70;MAPPANO;;45.14613;7.7034;http://www.icmappano.gov.it/
PIE19-CN3;CNIC83200A;BAGNOLO PIEMONTE - B. FENOGLIO;12031;A571;BAGNOLO PIEMONTE;CN;VIA;CONFRATERNITA;42;;;44.76061;7.31177;
PIE15-BI1;BIIC81400B;IC BIELLA II;13900;A859;BIELLA;BI;VIA;EDMONDO DE AMICIS;7;BIELLA CHIAVAZZA;;45.57101;8.06961;
PIE06-TO06;TOIC86800N;IC COAZZE;10094;E020;GIAVENO;TO;VIA;SAN SEBASTIANO;3;;;45.04349;7.35612;
PIE15-BI1;BIPS01000N;A. AVOGADRO - LICEO SCIENTIFICO;13900;A859;BIELLA;BI;VIA;GALIMBERTI;5;;;45.55911;8.05275;
PIE03-TO03;TOEE01100X;DD TORINO - CASALEGNO;10137;L219;TORINO;TO;VIA;ACCIARINI;20;;;45.04054;7.64185;
PIE17-CN1;CNIC86000E;CUNEO VIALE ANGELI;12100;D205;CUNEO;CN;VIALE;ANGELI;82;;;44.37656;7.54327;
PIE02-TO02;TOEE01700V;DD TORINO - COSTA;10151;L219;TORINO;TO;VIA;AMBROSINI;1;;;45.10382;7.64349;
PIE03-TO03;TOIC8A100T;IC TORINO - VITT.DA FELTRE;10126;L219;TORINO;TO;VIA;FINALMARINA;5;;;45.03279;7.66849;
PIE03-TO03;TOIC881004;IC TORINO - S. PERTINI;10134;L219;TORINO;TO;VIA;MONTEVIDEO;11;;;45.03638;7.65352;
PIE06-TO06;TOIS05700B;IIS B. PASCAL;10094;E020;GIAVENO;TO;VIA;CARDUCCI;4;;;45.04583;7.35179;
PIE21-NO1;NOIS00300G;BONFANTINI;28100;F952;NOVARA;NO;CORSO;RISORGIMENTO;405;;;45.47865;8.61178;
PIE17-CN1;CNIS02400G;CUNEO -BIANCHI - VIRGINIO;12100;D205;CUNEO;CN;CORSO;ALCIDE DE GASPERI;11;;;44.38053;7.53081;
PIE03-TO03;TOIS04700R;IIS GALILEI - FERRARI;10126;L219;TORINO;TO;VIA;LAVAGNA;8;;;45.0336;7.66884;
PIE15-BI1;BITF01000Q;Q. SELLA - ITI;13900;A859;BIELLA;BI;VIA;FRATELLI ROSSELLI;2;;;45.55925;8.04752;
PIE03-TO03;TOSL020003;LICEO ARTISTICO STATALE R.COTTINI;10136;L219;TORINO;TO;VIA;CASTELGOMBERTO;20;;;45.05158;7.63204;
PIE03-TO03;TOMM00400Q;TORINO - ANTONELLI;10137;L219;TORINO;TO;VIA;LEOPOLDO LANFRANCO;2;;EX VIA FILADELFIA;45.04148;7.64542;
PIE03-TO03;TOMM00900V;TORINO - CADUTI DI CEFALONIA;10137;L219;TORINO;TO;VIA;BALTIMORA;110;;;45.0461;7.63829;
PIE02-TO02;TOMM073006;TORINO - VIAN;10148;L219;TORINO;TO;VIA;STAMPINI;25;;;45.10795;7.66349;
PIE10-TO10;TOTF04000D;G.B.PININFARINA;10024;F335;MONCALIERI;TO;VIA;AMILCARE PONCHIELLI;16;;;45.0129;7.66257;http://www.itispininfarina.it/
PIE03-TO03;TOEE061001;DD TORINO - SINIGAGLIA;10137;L219;TORINO;TO;CORSO;SEBASTOPOLI;258;;;45.04808;7.63731;
PIE01-TO01;TOEE00500L;DD TORINO - BARICCO;10139;L219;TORINO;TO;CORSO;PESCHIERA;380;;;45.0741;7.6255;
PIE17-CN1;CNIC86100A;CUNEO VIA SOBRERO;12100;D205;CUNEO;CN;VIA;ASCANIO SOBRERO;14;;;44.38093;7.53677;
PIE10-TO10;TOMM32500B;CPIA 3 TORINO;10024;F335;MONCALIERI;TO;VIA;AMILCARE PONCHIELLI;18 BIS;BORGO SAN PIETRO;;45.01251;7.66296;
PIE01-TO01;TOIC8AY00L;IC TORINO - PALAZZESCHI;10141;L219;TORINO;TO;VIA;VINCENZO LANCIA;140;;;45.06262;7.62819;
PIE10-TO10;TOIC88900P;IC MONCALIERI-BORGO SAN PIETRO;10024;F335;MONCALIERI;TO;VIA;AMILCARE PONCHIELLI;22;BORGO SAN PIETRO;;45.01186;7.66346;
PIE16-BI2;BIIS00600L;IIS EUGENIO BONA;13900;A859;BIELLA;BI;VIA;ANTONIO GRAMSCI;22;;;45.56405;8.05216;
PIE16-BI2;BIIC80500L;IC VALLE MOSSO-PETTINENGO;13825;L606;VALLE MOSSO;BI;VIA;SCUOLE;8;;;45.63605;8.13997;
PIE02-TO02;TOMM286002;TORINO - DANTE ALIGHIERI;10146;L219;TORINO;TO;VIA;PACCHIOTTI;80;;;45.07811;7.62812;http://www.dantealighieritorino.it/
PIE11-AL1;ALIC81700X;ALESSANDRIA SPINETTA MARENGO;15122;A182;ALESSANDRIA;AL;VIA;DEL FERRAIO;46;FRAZIONE SPINETTA MARENGO;;44.8863;8.68267;
PIE03-TO03;TOEE04100Q;DD TORINO - MAZZINI;10136;L219;TORINO;TO;CORSO;ORBASSANO;155/A;;;45.04568;7.64488;
PIE19-CN3;CNIC84500C;IC LEONARDO DA VINCI VERZUOLO;12039;L804;VERZUOLO;CN;VIA;EUROPA;5;;;44.56897;7.46087;
PIE06-TO06;TOIC87000N;IC GIAVENO - F. GONIN;10094;E020;GIAVENO;TO;VIA;DON POGOLOTTO;45;;;45.03961;7.34895;
PIE17-CN1;CNPM010004;CUNEO - EDMONDO DE AMICIS;12100;D205;CUNEO;CN;CORSO;CARLO BRUNET;12;;;44.38294;7.54536;
PIE06-TO06;TOMM33200E;CPIA 5 TORINO;10098;H355;RIVOLI;TO;VIA;SALVADOR ALLENDE;5;;;45.07532;7.54509;
PIE08-TO08;TOIC894006;IC AZEGLIO;10010;A525;AZEGLIO;TO;VIA;VENTI SETTEMBRE;33;;;45.42488;7.9917;http://www.icazeglio.gov.it/
PIE02-TO02;TOIC87500R;IC TORINO - MARCONI-ANTONELLI;10153;L219;TORINO;TO;VIA;ASIGLIANO VERCELLESE;10;;;45.0759;7.72481;
PIE02-TO02;TOIS04800L;IIS R. ZERBONI;10148;L219;TORINO;TO;VIA;P. DELLA CELLA;3;;;45.10489;7.67902;
PIE03-TO03;TOIS04200N;IIS GIOVANNI GIOLITTI;10126;L219;TORINO;TO;VIA;ALASSIO;20;;;45.03937;7.66907;http://www.istitutogiolitti.gov.it/
PIE18-CN2;CNIS01700C;FOSSANO - G.VALLAURI;12045;D742;FOSSANO;CN;VIA;SAN MICHELE;68;;;44.55544;7.73654;
PIE17-CN1;CNPS02000N;CUNEO - G.PEANO - S.PELLICO;12100;D205;CUNEO;CN;VIA;MONTE ZOVETTO;8;;;44.38484;7.53982;
PIE11-AL1;ALIC815008;ALESSANDRIA - P. STRANEO;15121;A182;ALESSANDRIA;AL;VIA;PAOLO SACCO;11;;;44.89684;8.60164;
PIE19-CN3;CNIS00200P;AIMONE CRAVETTA;12038;I470;SAVIGLIANO;CN;CORSO;ROMA;70;;;44.64863;7.66138;
PIE05-TO05;TOIC8BJ00C;IC PINEROLO II - LAURO;10064;G674;PINEROLO;TO;VIA;BATTITORE;SNC;ABBADIA ALPINA;ANGOLO VIA GIUSTETTO;44.88497;7.30291;
PIE02-TO02;TOIC873005;IC TORINO - P. GEMELLI;10151;L219;TORINO;TO;CORSO;LOMBARDIA;98;;;45.09569;7.64699;
PIE02-TO02;TOEE024002;DD TORINO - DUCA D'AOSTA;10146;L219;TORINO;TO;VIA;CARLO CAPELLI;51;;;45.07954;7.63377;
PIE01-TO01;TOEE06400C;DD TORINO - TOSCANINI;10141;L219;TORINO;TO;VIA;TOFANE;28;;;45.06611;7.63319;
PIE15-BI1;BIIC815007;SAN FRANCESCO D'ASSISI;13900;A859;BIELLA;BI;PIAZZA;MARTIRI DELLA LIBERTA';12;;;45.56848;8.05055;
PIE23-VC1;VCIC80000E;TRINO;13039;L429;TRINO;VC;VIA;VITTIME DI BOLOGNA;4;;;45.19484;8.30268;
PIE11-AL1;ALEE00700B;5 CIRCOLO ALESSANDRIA;15121;A182;ALESSANDRIA;AL;VIA;PARINI;35;;;44.90424;8.60008;
PIE03-TO03;TORH010009;RH G. COLOMBATTO;10136;L219;TORINO;TO;VIA;GORIZIA;7;;;45.053;7.64194;
PIE20-CN4;CNIC85300B;ALBA QUARTIERE MUSSOTTO E SX TA;12051;A124;ALBA;CN;VIA;CESARE DELPIANO;5;FRAZIONE MUSSOTTO;;44.71701;8.01399;
PIE02-TO02;TOEE045003;DD TORINO - NOVARO;10154;L219;TORINO;TO;VIA;CORELLI;4;;;45.09445;7.70824;
PIE01-TO01;TOMM058004;TORINO - PEROTTI;10141;L219;TORINO;TO;VIA;TOFANE;22;;;45.06573;7.63475;
PIE19-CN3;CNIS02200X;SAVIGLIANO - ARIMONDI-EULA;12038;I470;SAVIGLIANO;CN;PIAZZETTA;BARALIS;5;;;44.64721;7.6606;
PIE17-CN1;CNIC80300A;DEMONTE - L. ROMANO;12014;D271;DEMONTE;CN;VIA;GIUSEPPE PEANO;6;;;44.3155;7.29302;
PIE17-CN1;CNTD04000P;CUNEO - F. A. BONELLI;12100;D205;CUNEO;CN;VIALE;ANGELI;12;;;44.38591;7.54851;
PIE19-CN3;CNIC85100Q;SAVIGLIANO SANTORRE DI SANTAROSA;12038;I470;SAVIGLIANO;CN;VIA;ALESSANDRO FERRERI;9;;;44.64732;7.65702;http://www.icsantarosasavigliano.gov.it/
PIE24-VC2;VCIC80500N;G.FERRARIS - LIVORNO FERRARIS;13046;E626;LIVORNO FERRARIS;VC;VIALE;QUATTRO NOVEMBRE;16;;;45.28284;8.07645;
PIE02-TO02;TOMM256006;TORINO - PIER GIORGIO FRASSATI;10149;L219;TORINO;TO;VIA;TIRABOSCHI;33;;;45.09749;7.65929;
PIE02-TO02;TOEE05600D;DD TORINO - SABIN;10155;L219;TORINO;TO;CORSO;VERCELLI;157;;;45.09865;7.69302;
PIE02-TO02;TOIC879004;IC TORINO - VIVALDI-MURIALDO;10147;L219;TORINO;TO;VIA;CASTELDELFINO;24;;;45.10021;7.67226;
PIE19-CN3;CNMM154005;SALUZZO - ROSA BIANCA;12037;H727;SALUZZO;CN;VIA;SEGRE;14;;;44.64308;7.49519;
PIE17-CN1;CNIC847004;IC BORGO SAN GIUSEPPE - CUNEO;12100;D205;CUNEO;CN;VIA;ROCCA DE' BALDI;15;BORGO SAN GIUSEPPE;;44.38938;7.56619;http://www.icborgosangiuseppe.it/
PIE02-TO02;TOSL01000C;LICEO ARTISTICO PRIMO;10153;L219;TORINO;TO;VIA;CARCANO;31;;;45.07733;7.71677;
PIE02-TO02;TOIC878008;IC TORINO - UMBERTO SABA;10147;L219;TORINO;TO;VIA;LORENZINI;4;;;45.09967;7.67817;
PIE10-TO10;TOIC88500B;IC MONCALIERI - SANTA MARIA;10024;F335;MONCALIERI;TO;VIA;BERTERO;2;;;44.99301;7.66366;
PIE11-AL1;ALPS01000P;GALILEO GALILEI;15121;A182;ALESSANDRIA;AL;SPALTO;BORGOGLIO;49;;;44.91183;8.60532;
PIE17-CN1;CNIS00300E;CUNEO - S.GRANDIS;12100;D205;CUNEO;CN;CORSO;QUATTRO NOVEMBRE;16;;;44.38983;7.54096;
PIE02-TO02;TOMM078009;TORINO - G. B. VIOTTI;10155;L219;TORINO;TO;CORSO;VERCELLI;141/6;;;45.09745;7.69274;
PIE17-CN1;CNIC82800P;DRONERO - G.GIOLITTI;12025;D372;DRONERO;CN;PIAZZA;BATTAGLIONE ALPINI DRONERO;4;;;44.46904;7.35512;http://www.icdronero.it/
PIE19-CN3;CNIS014001;IIS CARLO DENINA - SALUZZO;12037;H727;SALUZZO;CN;VIA;DELLA CHIESA;17;;;44.64422;7.4885;http://www.denina.it/
PIE01-TO01;TOIC8AZ00C;IC TORINO - ALBERTI;10141;L219;TORINO;TO;VIA;TOLMINO;40;;VIA BRACCINI 63;45.05735;7.64484;http://www.icalberti.gov.it/
PIE17-CN1;CNIC85700P;CUNEO-CORSO SOLERI;12100;D205;CUNEO;CN;CORSO;MARCELLO SOLERI;1;;;44.38939;7.54554;
PIE11-AL1;ALIS01800X;FERMI - NERVI;15121;A182;ALESSANDRIA;AL;VIA;ANGELO MORBELLI;33;;;44.91423;8.60657;http://www.iisnervifermi.gov.it/
PIE02-TO02;TOMM257002;TORINO- NORBERTO BOBBIO;10154;L219;TORINO;TO;VIA;SANTHIA';76;;;45.09446;7.69938;
PIE08-TO08;TOIS00400V;IIS ALDO MORO;10086;H340;RIVAROLO CANAVESE;TO;VIA;NATALE GALLO PECCA;4/6;;;45.33082;7.72226;http://www.istitutomoro.it/
PIE26-VCO2;VBEE00200N;CD DOMODOSSOLA I;28845;D332;DOMODOSSOLA;VB;VIA;ROSMINI;16;;;46.1143;8.29061;
PIE21-NO1;NOIS00200Q;PASCAL;28068;H518;ROMENTINO;NO;STRADA;PROVINCIALE PER NOVARA;4;;;45.46211;8.70847;
PIE04-TO04;TOIS067002;IIS CURIE - LEVI;10093;C860;COLLEGNO;TO;VIA;TORINO;9;;;45.07696;7.58027;
PIE06-TO06;TOEE137001;DD OULX - P. P. LAMBERT;10056;G196;OULX;TO;PIAZZA;GARAMBOIS;6;;;45.03121;6.8321;http://www.ddoulx.gov.it/
PIE08-TO08;TOIC849008;IC SETTIMO VITTONE;10010;I702;SETTIMO VITTONE;TO;STRADA;PROVINCIALE;14;;;45.54978;7.82864;
PIE01-TO01;TOEE065008;DD TORINO - SALGARI;10141;L219;TORINO;TO;VIA;LUSSIMPICCOLO;36/A;;;45.05647;7.64703;
PIE17-CN1;CNMM161008;CPIA 6 CUNEO - SALUZZO;12100;D205;CUNEO;CN;VIA;BARBAROUX;7;;;44.38988;7.54994;
PIE26-VCO2;VBMM01700A;SMS DI DOMODOSSOLA;28845;D332;DOMODOSSOLA;VB;VIA;TERRACINI;23;;;46.12342;8.2915;
PIE12-AL2;ALIS008009;GUGLIELMO MARCONI;15057;L304;TORTONA;AL;VIALE;LUIGI EINAUDI;6;;;44.90315;8.87155;
PIE14-AT2;ATIC81400D;IC 3 ASTI;14100;A479;ASTI;AT;VIA;FENOGLIO;9;;;44.89255;8.21728;
PIE26-VCO2;VBIC819001;IC DI CRUSINALLO-CASALE C.C.;28887;G062;OMEGNA;VB;VIA;MONTE MASSONE;5;CRUSINALLO;;45.89628;8.41081;
PIE02-TO02;TOEE18200V;DD TORINO - ALERAMO;10149;L219;TORINO;TO;VIA;LEMIE;48;;;45.09647;7.6666;
PIE01-TO01;TOIS058007;IIS SANTORRE DI SANTAROSA;10139;L219;TORINO;TO;CORSO;PESCHIERA;230;;;45.0679;7.64189;
PIE08-TO08;TOEE08400N;DD CALUSO;10014;B435;CALUSO;TO;VIA;GNAVI;1;;;45.30696;7.88475;
PIE01-TO01;TORI030002;G. PLANA;10141;L219;TORINO;TO;PIAZZA;ROBILAND;5;;;45.06111;7.64505;
PIE04-TO04;TOIC84000T;IC RIVALTA - TETTI FRANCESI;10040;H335;RIVALTA DI TORINO;TO;VIA;FOSSANO;7;FRAZIONE TETTI FRANCESI;;44.99737;7.51365;
PIE04-TO04;TOIC8A6001;IC NICHELINO II;10042;F889;NICHELINO;TO;VIA;SANGONE;34;;;45.00478;7.65338;
PIE16-BI2;BIIC80400R;IC TRIVERO;13835;L436;TRIVERO;BI;FRAZIONE;RONCO;4/A;;;45.66409;8.15852;
PIE26-VCO2;VBEE00300D;CD DOMODOSSOLA II;28845;D332;DOMODOSSOLA;VB;VIA;SAN FRANCESCO;44;;;46.12371;8.28981;
PIE18-CN2;CNIS02900P;MONDOVI' - CIGNA-BARUFFI-GARELLI;12084;F351;MONDOVI';CN;VIA;DI CURAZZA;15;;;44.38414;7.82056;
PIE03-TO03;TOPC10000P;LC V. ALFIERI;10126;L219;TORINO;TO;CORSO;DANTE ALIGHIERI;80;;;45.04651;7.67757;
PIE24-VC2;VCIC80400T;G. LIGNANA - TRONZANO -;13049;L451;TRONZANO VERCELLESE;VC;VIA;MILANO;SNC;;;45.34459;8.17659;
PIE18-CN2;CNPS010003;FOSSANO - G.ANCINA;12045;D742;FOSSANO;CN;PIAZZA;DON MARIO PICCO;6;;;44.55306;7.72615;
PIE19-CN3;CNIC85200G;SAVIGLIANO -PAPA GIOVANNI XXIII;12038;I470;SAVIGLIANO;CN;VICOLO;S. EUSTACCHIO;18;;;44.64185;7.65672;
PIE26-VCO2;VBIC804007;IC ANDREA TESTORE;28857;I249;SANTA MARIA MAGGIORE;VB;VIA;TORINO;11;;;46.13866;8.45991;http://www.icandreatestore.gov.it/
PIE18-CN2;CNMM14800T;FOSSANO - SACCO-BOETTO-PAGLIERI;12045;D742;FOSSANO;CN;PIAZZA;DON MARIO PICCO;6;;;44.553;7.72596;
PIE17-CN1;CNIS02800V;CUNEO - VIRGINIO-DONADIO;12100;D205;CUNEO;CN;VIA;SAVIGLIANO;25;;;44.39134;7.55042;
PIE19-CN3;CNPC030005;SALUZZO - G.B.BODONI;12037;H727;SALUZZO;CN;VIA;DONAUDI;24;;;44.64681;7.48931;
PIE19-CN3;CNIS021004;SALUZZO - SOLERI-BERTONI;12037;H727;SALUZZO;CN;VIA;TRAVERSA DEL QUARTIERE;2;;;44.6476;7.48322;
PIE19-CN3;CNEE05900C;SALUZZO;12037;H727;SALUZZO;CN;PIAZZA;VENTI SETTEMBRE;1;;;44.64694;7.49124;
PIE19-CN3;CNIC834002;REVELLO;12036;H247;REVELLO;CN;VIALE;UMBERTO I;33;CAPOLUOGO;;44.65373;7.38843;
PIE01-TO01;TOMM25400E;TORINO - FOSCOLO;10129;L219;TORINO;TO;VIA;PIAZZI;57;;;45.05144;7.65792;
PIE08-TO08;TOIC8AC00D;IC RIVAROLO CANAVESE;10086;H340;RIVAROLO CANAVESE;TO;VIA;FRANCESCO LE MAIRE;20;;;45.32824;7.71838;
PIE25-VCO1;VBIS00700V;IS L. COBIANCHI;28921;L746;VERBANIA;VB;PIAZZA;MARTIRI DI TRAREGO;8;INTRA;;45.93908;8.5748;
PIE02-TO02;TOIS01300N;BODONI - PARAVIA;10154;L219;TORINO;TO;VIA;AMILCARE PONCHIELLI;56;;;45.08559;7.70678;
PIE03-TO03;TOEE05100A;DD TORINO - PELLICO;10126;L219;TORINO;TO;VIA;MADAMA CRISTINA;102;;;45.04724;7.67536;
PIE08-TO08;TOIS00600E;IIS C. UBERTINI;10014;B435;CALUSO;TO;PIAZZA;MAZZINI;4;;;45.3055;7.88906;
PIE26-VCO2;VBIS00300G;IS MARCONI-GALLETTI-EINAUDI;28845;D332;DOMODOSSOLA;VB;VIA;ALDO OLIVA;15;;;46.12127;8.28866;
PIE11-AL1;ALIC82800A;ALESSANDRIA - BOVIO/CAVOUR;15121;A182;ALESSANDRIA;AL;SPALTO;ROVERETO;63;;VIA GUASCO. 156;44.91783;8.61219;
PIE02-TO02;TOEE00400R;DD TORINO - ALLIEVO;10147;L219;TORINO;TO;VIA;VIBO';62;;;45.09601;7.6738;
PIE24-VC2;VCIC803002;S.IGNAZIO DA SANTHIA'-SANTHIA';13048;I337;SANTHIA';VC;PIAZZA;PAPA GIOVANNI XXIII;2;;;45.36728;8.16962;
PIE20-CN4;CNEE06400X;CD SECONDO CIRCOLO BRA;12042;B111;BRA;CN;VIA;EUROPA;15;;;44.69057;7.85087;
PIE18-CN2;CNEE033008;FOSSANO-SECONDO CIRCOLO;12045;D742;FOSSANO;CN;VIA;GIUSEPPE GARIBALDI;5;;;44.54932;7.72645;
PIE02-TO02;TOIC81800L;IC TORINO - GASPARE GOZZI-CAMILLO OLIVETTI;10132;L219;TORINO;TO;VIA;BARDASSANO;5;;;45.06668;7.71153;http://gozzi-olivetti.org/
PIE05-TO05;TOIC807006;IC PEROSA ARGENTINA;10063;G463;PEROSA ARGENTINA;TO;PIAZZA;EUROPA;1;;;44.9581;7.19186;
PIE07-TO07;TOPS30000G;JUVARRA CON ANNESSA SEZ. CLASSICA;10078;L727;VENARIA REALE;TO;VIA;BUOZZI;16;;;45.12453;7.64415;
PIE20-CN4;CNPS05000D;BRA - G.GIOLITTI-G.B.GANDINO;12042;B111;BRA;CN;VIA;FRATELLI CARANDO;43;;;44.69386;7.85392;
PIE03-TO03;TOIS066006;IIS ADA GOBETTI MARCHESINI - LUIGI CASALE - VERA E LIBERA ARDUINO;10131;L219;TORINO;TO;VIA;FIGLIE DEI MILITARI;25;;;45.06378;7.70994;http://www.gmca.gov.it/
PIE17-CN1;CNIC809009;A. VASSALLO - BOVES;12012;B101;BOVES;CN;VIA;DON CAVALLERA;14;;;44.330089;7.5484168;http://icvassalloboves.gov.it/
PIE03-TO03;TOPS270001;SC.INTERN.EUROPEA STAT.A.SPINELLI;10131;L219;TORINO;TO;VIA;FIGLIE DEI MILITARI;25;;;45.06429;7.70966;
PIE01-TO01;TOMM32300Q;CPIA 1 TORINO;10139;L219;TORINO;TO;VIA;BARDONECCHIA;34;;;45.0727;7.64481;
PIE01-TO01;TOIC88400G;IC TORINO - CORSO RACCONIGI;10139;L219;TORINO;TO;VIA;LUSERNA DI RORA';14;;;45.07269;7.64481;
PIE02-TO02;TOEE029005;DD TORINO - GABELLI;10154;L219;TORINO;TO;VIA;SANTHIA';25;;;45.09098;7.6967;
PIE02-TO02;TOMM32400G;CPIA 2 TORINO;10154;L219;TORINO;TO;VIA;BOLOGNA;153;;;45.09098;7.6967;
PIE10-TO10;TOIC8AS00N;IC ANDEZENO;10020;A275;ANDEZENO;TO;PIAZZA;ITALIA;1;;;45.03622;7.87026;http://www.icandezeno.it/
PIE21-NO1;NOIC825008;IC RITA LEVI-MONTALCINI;28100;F952;NOVARA;NO;VIA;RIVOLTA;4;RIONE SANT'ANDREA;;45.46249;8.62116;
PIE02-TO02;TOIS029007;IPS J. B. BECCARI;10154;L219;TORINO;TO;VIA;PAGANINI;22;;;45.08533;7.70458;
PIE11-AL1;ALIS00600N;LEONARDO DA VINCI;15121;A182;ALESSANDRIA;AL;VIA;TROTTI;19;;;44.9133;8.61255;
PIE04-TO04;TOIC8A700R;IC NICHELINO III;10042;F889;NICHELINO;TO;VIALE;J. KENNEDY;40;;;44.98989;7.65627;
PIE08-TO08;TOSD010002;LICEO ARTISTICO FELICE FACCIO;10081;C133;CASTELLAMONTE;TO;VIA;AMMIRAGLIO PULLINO;24;;;45.38197;7.71532;
PIE06-TO06;TOPC08000P;N. ROSA;10059;L013;SUSA;TO;PIAZZA;SAVOIA;19;;;45.13759;7.04447;
PIE24-VC2;VCIC80600D;DON EVASIO FERRARIS - CIGLIANO;13043;C680;CIGLIANO;VC;PIAZZA;MARTIRI DELLA LIBERTA';14/B;;;45.30981;8.02144;
PIE06-TO06;TOIC880008;IC SUSA;10059;L013;SUSA;TO;PIAZZA;SAVOIA;21;;;45.13764;7.04456;
PIE02-TO02;TOIS061003;IIS G. PEANO;10147;L219;TORINO;TO;CORSO;VENEZIA;29;;;45.0942;7.68094;
PIE07-TO07;TOIC89000V;IC DRUENTO;10040;D373;DRUENTO;TO;VIA;ALESSANDRO MANZONI;11;;;45.13054;7.5756;
PIE18-CN2;CNIC83600N;GARESSIO;12075;D920;GARESSIO;CN;PIAZZA;BALILLA;12;;;44.20253;8.0244;
PIE20-CN4;CNIS01600L;BRA - E. GUALA;12042;B111;BRA;CN;PIAZZA;ROMA;7;;;44.69412;7.85138;
PIE08-TO08;TOIS03900T;IIS P. MARTINETTI;10014;B435;CALUSO;TO;VIA;MONTELLO;29;;;45.30346;7.88764;
PIE08-TO08;TOMM12100A;CALUSO - GOZZANO;10014;B435;CALUSO;TO;VIA;UNITA' D'ITALIA;7;;;45.3032;7.88921;
PIE24-VC2;VCIS016008;VINCENZO LANCIA;13011;B041;BORGOSESIA;VC;VIA;GUGLIELMO MARCONI;8;;;45.71553;8.28243;
PIE16-BI2;BIIC81200Q;IC FRATELLI VIANO DA LESSONA;13862;B229;BRUSNENGO;BI;VIALE;CARLO VERZONE;25;;;45.59133;8.25136;
PIE20-CN4;CNEE063004;CD BRA - PRIMO CIRCOLO;12042;B111;BRA;CN;VIA;VITTORIO EMANUELE;200;;;44.69725;7.85314;
PIE26-VCO2;VBPS030009;LS SPEZIA;28845;D332;DOMODOSSOLA;VB;VIA;MENOTTI;5/7;;;46.12281;8.28474;
PIE08-TO08;TOEE09100R;DD CASTELLAMONTE;10081;C133;CASTELLAMONTE;TO;PIAZZALE;DI VITTORIO;2;;;45.38345;7.71077;
PIE17-CN1;CNIC841005;CHIUSA DI PESIO - PEVERAGNO;12013;C653;CHIUSA DI PESIO;CN;VIA;CIRCONVALLAZIONE VIGNA;SNC;;;44.28174;7.66783;
PIE06-TO06;TOIS00100B;IIS LUIGI DES AMBROIS;10056;G196;OULX;TO;VIA;MARTIN LUTHER KING;10;;;45.037;6.8271;http://www.desambrois.it/
PIE08-TO08;TOIC865006;IC FAVRIA;10083;D520;FAVRIA;TO;PIAZZA;REPUBBLICA;6;;;45.33169;7.69036;
PIE25-VCO1;VBIC81500N;IC DI VERBANIA INTRA;28900;L746;VERBANIA;VB;VIA;ROSMINI;6;INTRA;;45.93712;8.57002;
PIE20-CN4;CNMM15000T;BRA PIUMATI CRAVERI DALLACHIESA;12042;B111;BRA;CN;VIA;BARBACANA;41;;;44.70005;7.85353;
PIE02-TO02;TOIS01800R;EINSTEIN;10154;L219;TORINO;TO;VIA;PACINI;28;;;45.08611;7.6998;
PIE18-CN2;CNIC85800E;MONDOVI' 1;12084;F351;MONDOVI';CN;VIA;G. MANESSERO;8;LOCALITA' BREO;;44.38827;7.81955;
PIE04-TO04;TOMM27300X;COLLEGNO DON MINZONI-GRAMSCI;10093;C860;COLLEGNO;TO;VIA;GAETANO DONIZETTI;30;;;45.07576;7.5704;
PIE18-CN2;CNPS07000P;LICEO VASCO-BECCARIA-GOVONE;12084;F351;MONDOVI';CN;PIAZZA;QUATTRO NOVEMBRE;4;;;44.39043;7.82737;
PIE20-CN4;CNRH02000B;ISTITUTO VELSO MUCCI;12042;B111;BRA;CN;VIA;CRAVERI;8;;;44.70035;7.85333;
PIE25-VCO1;VBIC80300B;IC PIETRO CARMINE;28822;B615;CANNOBIO;VB;VIA;A. ZAMMARETTI;4;;;46.06476;8.69825;http://www.icarminecannobio.org/
PIE18-CN2;CNIS026007;MONDOVI' - GIOLITTI-BELLISARIO;12084;F351;MONDOVI';CN;PIAZZA;QUATTRO NOVEMBRE;6;;;44.39117;7.82796;
PIE18-CN2;CNEE03200C;FOSSANO-PRIMO CIRCOLO;12045;D742;FOSSANO;CN;VIA;GIACOMO MATTEOTTI;33;;;44.54849;7.72108;
PIE11-AL1;ALIC82500V;ALESSANDRIA G.GALILEI;15121;A182;ALESSANDRIA;AL;VIA;GALILEO GALILEI;14/16;;;44.90428;8.61651;
PIE04-TO04;TOIC8AJ00T;IC ORBASSANO II;10043;G087;ORBASSANO;TO;VIA;FREJUS;67;;;45.00787;7.52742;
PIE24-VC2;VCIC81400C;IC SCUOLA MEDIA BORGOSESIA;13011;B041;BORGOSESIA;VC;VIA;GUGLIELMO MARCONI;2;;;45.71633;8.27988;
PIE10-TO10;TOIC857007;IC POIRINO;10046;G777;POIRINO;TO;CORSO;FIUME;77;;;44.92041;7.85719;http://www.icpoirino.org/
PIE07-TO07;TOIC82700B;IC CORIO;10070;D008;CORIO;TO;STRADA;PONTE PICCA;2;;;45.31308;7.53553;
PIE03-TO03;TOMM25900N;TORINO - NIEVO - MATTEOTTI;10133;L219;TORINO;TO;VIA;MENTANA;14;;;45.05535;7.69369;
PIE09-TO09;TOIS02700G;IIS EUROPA UNITA;10034;C665;CHIVASSO;TO;VIA;GUGLIELMO MARCONI;6;;;45.18626;7.8881;http://www.istitutoeuropaunita.gov.it/
PIE09-TO09;TOIC8BK008;IC CHIVASSO - D. COSOLA;10034;C665;CHIVASSO;TO;VIA;GUGLIELMO MARCONI;2;;;45.18709;7.88801;http://www.comprensivocosola.gov.it/
PIE09-TO09;TOIC8BQ007;IC CHIVASSO - ALESSANDRO DASSO;10034;C665;CHIVASSO;TO;VIA;BLATTA;26;;;45.1960836;7.887115;*
PIE26-VCO2;VBIC80800E;IC FRATELLI CASETTI;28865;D168;CREVOLADOSSOLA;VB;VIA;COMBATTENTI;1;FRAZIONE PREGLIA;;46.16221;8.30591;http://iccasetti.gov.it/
PIE02-TO02;TOIC87600L;IC TORINO - VIA RICASOLI;10153;L219;TORINO;TO;VIA;RICASOLI;30;;;45.07195;7.70527;
PIE21-NO1;NOIC81000E;FRANCESCO TADINI - CAMERI;28062;B473;CAMERI;NO;VIA;MARE';36;;;45.4955035;8.6607539;http://www.tadinicameri.gov.it/
PIE03-TO03;TOEE01800P;DD TORINO - D'AZEGLIO;10131;L219;TORINO;TO;VIA;SANTORRE DI SANTAROSA;11;;;45.0625;7.70156;
PIE11-AL1;ALIS016008;SALUZZO - PLANA;15121;A182;ALESSANDRIA;AL;VIA;EMILIO FAA' DI BRUNO;85;;;44.91092;8.61773;
PIE03-TO03;TOIS05400X;IIS C.I. GIULIO;10125;L219;TORINO;TO;VIA;G. BIDONE;11;;;45.05289;7.67728;
PIE07-TO07;TOIC80900T;IC CERES;10070;C497;CERES;TO;VIA;NINO COSTA;3;;;45.3127734;7.3894145;*
PIE25-VCO1;VBIS00200Q;IS FERRINI-FRANZOSINI;28922;L746;VERBANIA;VB;VIA;MASSARA;8;PALLANZA;;45.92839;8.56497;
PIE12-AL2;ALPS020009;GIUSEPPE PEANO;15057;L304;TORTONA;AL;VIALE;VITTORIO VENETO;3/A;;;44.89428;8.86621;
PIE07-TO07;TOIC8A4009;IC VENARIA II;10078;L727;VENARIA REALE;TO;CORSO;PAPA GIOVANNI XXIII;54;;;45.12615;7.63506;
PIE01-TO01;TOEE016003;DD TORINO - COPPINO;10129;L219;TORINO;TO;VIA;COLOMBO;36;;;45.05817;7.6602;
PIE10-TO10;TOIC88800V;IC MONCALIERI- CENTRO STORICO;10024;F335;MONCALIERI;TO;VIA;SAN MARTINO;27;;;44.9997;7.68198;
PIE22-NO2;NOIC813002;ANTONELLI - BELLINZAGO NOVOVARESE;28043;A752;BELLINZAGO NOVARESE;NO;VIA;VESCOVO BOVIO;9;;;45.5722;8.64396;
PIE08-TO08;TOIS01200T;IIS OLIVETTI;10015;E379;IVREA;TO;COLLE;BELLAVISTA;SNC;;;45.44221;7.87103;
PIE04-TO04;TOIS016005;IIS AMALDI - SRAFFA;10043;G087;ORBASSANO;TO;VIA;FRATELLI ROSSELLI;35;;;45.00157;7.53081;
PIE02-TO02;TORI04000L;IPSIA DALMAZIO BIRAGO;10154;L219;TORINO;TO;CORSO;NOVARA;65;;;45.08401;7.69717;
PIE11-AL1;ALIC82700E;ALESSANDRIA DE AMICIS/MANZONI;15121;A182;ALESSANDRIA;AL;PIAZZA;VITTORIO VENETO;5;;;44.91136;8.61894;
PIE04-TO04;TOEE18500A;DD COLLEGNO - MARCONI;10097;C860;COLLEGNO;TO;VIA;BENDINI;40;;;45.07454;7.5803;
PIE02-TO02;TOIC8BD00X;IC TORINO I;10152;L219;TORINO;TO;CORSO;NOVARA;26;;;45.087;7.69193;
PIE08-TO08;TOIC84800C;IC FORNO CANAVESE;10084;D725;FORNO CANAVESE;TO;VIA;ALDO MORO;9;;;45.34576;7.59267;
PIE03-TO03;TOPM050003;REGINA MARGHERITA;10125;L219;TORINO;TO;VIA;VALPERGA CALUSO;12;;;45.05364;7.677;
PIE07-TO07;TOIC8AK00N;IC CIRIE' I;10073;C722;CIRIE';TO;VIA;PARCO;33;;;45.2325;7.60963;
PIE05-TO05;TOIC81300D;IC TORRE PELLICE - G. RODARI;10066;L277;TORRE PELLICE;TO;VIALE;DANTE ALIGHIERI;11/13;;;44.82265;7.22043;http://www.icrodari.it/
PIE04-TO04;TOIC8A5005;IC NICHELINO I;10042;F889;NICHELINO;TO;VIA;MONCENISIO;24;;;44.99852;7.64623;
PIE16-BI2;BIIS004001;DEL COSSATESE E VALLE STRONA;13836;D094;COSSATO;BI;VIA;MARTIRI DELLA LIBERTA';389;;;45.56829;8.19704;
PIE19-CN3;CNIC833006;IC BARGE;12032;A660;BARGE;CN;VIALE;MAZZINI;2;;;44.72727;7.32346;
PIE02-TO02;TOIC8A0002;IC TORINO - NIGRA;10143;L219;TORINO;TO;VIA;BIANZE';7;;;45.07813;7.65467;
PIE21-NO1;NOIC818005;ITALO CALVINO - GALLIATE;28066;D872;GALLIATE;NO;LARGO;PIAVE;4;;;45.47355;8.69426;
PIE18-CN2;CNIC812005;VILLANOVA MONDOVI';12089;L974;VILLANOVA MONDOVI';CN;CORSO;GUGLIELMO MARCONI;37;;;44.3464;7.76771;
PIE06-TO06;TOIC872009;IC RIVOLI - LEVI;10098;H355;RIVOLI;TO;VIA;SESTRIERE;60;;;45.07458;7.5453;
PIE10-TO10;TOIC8AM009;IC CARMAGNOLA III;10022;B791;CARMAGNOLA;TO;CORSO;SACCHIRONE;26;;;44.84694;7.71722;
PIE06-TO06;TOIC82100C;IC ALMESE;10040;A218;ALMESE;TO;PIAZZA;DELLA FIERA;3/2;;;45.11724;7.39577;
PIE20-CN4;CNIC825007;CHERASCO - S. TARICCO;12062;C599;CHERASCO;CN;VIA;BEATO AMEDEO;18;;;44.65028;7.85575;
PIE06-TO06;TOIS017001;IIS E. FERRARI;10059;L013;SUSA;TO;CORSO;L. COUVERT;21;;;45.139;7.05296;
PIE16-BI2;BIIC816003;IC COSSATO;13836;D094;COSSATO;BI;PIAZZA;ANGIONO;24;;;45.56969;8.18049;
PIE09-TO09;TOIC8BA00C;IC SETTIMO II;10036;I703;SETTIMO TORINESE;TO;VIA;CUNEO;1;;;45.13078;7.75991;
PIE06-TO06;TOIC822008;IC CASELETTE;10040;B955;CASELETTE;TO;STRADA;CONTESSA;90;;;45.10766;7.49005;http://www.iccaselette.it/
PIE10-TO10;TOIC8AN005;IC CARMAGNOLA I;10022;B791;CARMAGNOLA;TO;CORSO;SACCHIRONE;47;;;44.84852;7.71613;
PIE11-AL1;ALIS004002;BENVENUTO CELLINI;15048;L570;VALENZA;AL;STRADA;PONTECURONE;17;;;45.00802;8.6478;
PIE10-TO10;TOIC8AP00R;IC CARMAGNOLA II;10022;B791;CARMAGNOLA;TO;VIA;GUGLIELMO MARCONI;20;;;44.84482;7.72122;
PIE04-TO04;TOIC86200P;IC GRUGLIASCO - 66 MARTIRI;10095;E216;GRUGLIASCO;TO;VIA;OLEVANO;81;;;45.05894;7.57005;
PIE02-TO02;TOPC01000C;LICEO CLASSICO E MUSICALE C. CAVOUR;10143;L219;TORINO;TO;CORSO;TASSONI;15;;;45.07777;7.65585;
PIE25-VCO1;VBIC81400T;IC DI VERBANIA TROBASO;28923;L746;VERBANIA;VB;VIA;REPUBBLICA;6;TROBASO;;45.94637;8.55786;
PIE03-TO03;TOIC81900C;IC TORINO - MANZONI;10125;L219;TORINO;TO;CORSO;GUGLIELMO MARCONI;28;;;45.05544;7.68157;
PIE09-TO09;TOIC85400Q;IC VEROLENGO;10038;L779;VEROLENGO;TO;PIAZZA;SANDRO PERTINI;1;;;45.18707;7.96802;
PIE21-NO1;NOIC82300L;BELLINI - NOVARA;28100;F952;NOVARA;NO;VIA;VALLAURI;4;;;45.44739;8.6362;
PIE05-TO05;TOIC83400E;IC CANDIOLO;10060;B592;CANDIOLO;TO;PIAZZALE;DELLA RESISTENZA;SNC;;;44.959172;7.60054;http://www.iccandiolo.gov.it/
PIE11-AL1;ALTF01000R;ALESSANDRO VOLTA;15121;A182;ALESSANDRIA;AL;SPALTO;MARENGO;42;;;44.9182;8.62118;http://www.volta-alessandria.it/
PIE04-TO04;TOIC85900V;IC COLLEGNO - B.TA PARADISO;10097;C860;COLLEGNO;TO;VIA;MIGLIETTI;9;;;45.07562;7.59669;
PIE10-TO10;TOIS008006;IIS BALDESSANO-ROCCATI;10022;B791;CARMAGNOLA;TO;VIALE;GIUSEPPE GARIBALDI;7;;;44.84832;7.71724;
PIE10-TO10;TOIS03300V;NORBERTO BOBBIO;10041;B777;CARIGNANO;TO;VIA;VALDOCCO;23;;;44.91096;7.67346;
PIE09-TO09;TOPS190009;I. NEWTON;10034;C665;CHIVASSO;TO;VIA;PALEOLOGI;22;;;45.19192;7.8841;
PIE04-TO04;TOIC86700T;IC GRUGLIASCO - DI NANNI;10095;E216;GRUGLIASCO;TO;VIA;ROMA;11;;;45.06791;7.57852;
PIE26-VCO2;VBIC80600V;IC VALTOCE;28805;M111;VOGOGNA;VB;VIA;ARCHITETTO VIETTI VIOLI;17/25;;;46.00604;8.29744;
PIE07-TO07;TOIC8AL00D;IC CIRIE' II;10073;C722;CIRIE';TO;VIA;ROMA;42;;;45.23339;7.6035;
PIE02-TO02;TOIC81700R;IC TORINO - PACINOTTI;10144;L219;TORINO;TO;VIA;LE CHIUSE;80;;;45.08144;7.65998;
PIE05-TO05;TOIC8BM00X;IC PINEROLO I;10064;G674;PINEROLO;TO;VIA;LUIGI EINAUDI;38;;;44.87806;7.32852;
PIE05-TO05;TOIC8BN00Q;IC PINEROLO IV;10064;G674;PINEROLO;TO;VIA;PAPA GIOVANNI XXIII;19;;;44.89302;7.34086;
PIE05-TO05;TOIC8BP00B;IC PINEROLO III;10064;G674;PINEROLO;TO;VIA;DEI ROCHIS;29;;;44.88817;7.34713;
PIE14-AT2;ATPM01000R;AUGUSTO MONTI;14100;A479;ASTI;AT;PIAZZA;CAGNI;2;;;44.8976;8.19893;
PIE17-CN1;CNIC80200E;MOROZZO;12040;F743;MOROZZO;CN;VIA;LUCIANO EULA;8;CAPOLUOGO;;44.42479;7.70958;
PIE13-AT1;ATIC80500P;I C CASTELL'ALFERO;14033;C127;CASTELL'ALFERO;AT;VIA;CASALE;97;;;44.98667;8.22252;
PIE08-TO08;TOEE16800L;DD SAN GIORGIO CANAVESE;10090;H890;SAN GIORGIO CANAVESE;TO;VICOLO;BIANCHETTI;17;;;45.33669;7.7947;
PIE06-TO06;TOIC86900D;IC TRANA;10090;L327;TRANA;TO;VIA;DANTE ALIGHIERI;3/A;;;45.03761;7.42331;
PIE04-TO04;TOIC895002;IC BEINASCO - BORGARETTO;10092;A734;BEINASCO;TO;VIA;TRENTO;24;BORGARETTO;;45.00419;7.60414;
PIE05-TO05;TOIC84600R;IC PINEROLO V - CUMIANA;10040;D202;CUMIANA;TO;VIA;MICHELANGELO FERRERO;11;;;44.98108;7.37332;
PIE18-CN2;CNIC85900A;IC MONDOVI' 2;12084;F351;MONDOVI';CN;VIA;GIACOMO MATTEOTTI;9;ALTIPIANO;;44.39333;7.81537;http://icmondovi2.gov.it/
PIE08-TO08;TOIS02600Q;IIS 25 APRILE;10082;D208;CUORGNE';TO;VIA;VENTIQUATTRO MAGGIO;13;;;45.38811;7.64686;
PIE04-TO04;TOIC81200N;IC GRUGLIASCO - MARTIN LUTHER KING;10095;E216;GRUGLIASCO;TO;VIALE;RADICH;3;BORGATA PARADISO;;45.06789;7.60633;
PIE08-TO08;TOMM14700E;CUORGNE' - GIOVANNI CENA;10082;D208;CUORGNE';TO;VIA;VENTIQUATTRO MAGGIO;21;;;45.38805;7.6466;
PIE22-NO2;NOIC82200R;BELFANTI - CASTELLETTO TICINO;28053;C166;CASTELLETTO TICINO;NO;VIA;CADUTI PER LA LIBERTA';134;;;45.713;8.6427;
PIE08-TO08;TOPC020003;LICEO CLASSICO STATALE CARLO BOTTA;10015;E379;IVREA;TO;CORSO;RE UMBERTO;37;;;45.46549;7.87694;
PIE12-AL2;ALIC83400N;IC TORTONA A;15057;L304;TORTONA;AL;CORSO;CAVOUR;6A;;;44.89627;8.85913;
PIE08-TO08;TOEE108001;DD CUORGNE';10082;D208;CUORGNE';TO;VIA;VENTIQUATTRO MAGGIO;3;;;45.38949;7.64822;
PIE11-AL1;ALIC82600P;ALESSANDRIA - CARDUCCI/VOCHIERI;15121;A182;ALESSANDRIA;AL;PIAZZA;MASSIMO D'AZEGLIO;15;;;44.90966;8.62296;
PIE20-CN4;CNIS00400A;ALBA - P. CILLARIO FERRERO;12051;A124;ALBA;CN;VIA;CESARE BALBO;8;;;44.70227;8.0377;
PIE26-VCO2;VBIC818005;IC DI OMEGNA CIREGGIO;28887;G062;OMEGNA;VB;VIA;LEONARDO DA VINCI;47;CIREGGIO;;45.87321;8.39653;
PIE12-AL2;ALIC81300L;ARQUATA SCRIVIA/VIGNOLE BORBERA;15061;A436;ARQUATA SCRIVIA;AL;VIA;REGONCA;20;;;44.68524;8.88722;
PIE08-TO08;TOIC8AA00T;IC IVREA I;10015;E379;IVREA;TO;CORSO;MASSIMO D'AZEGLIO;53;;;45.46779;7.88292;
PIE19-CN3;CNIC83500T;SANFRONT - PAESANA;12030;H852;SANFRONT;CN;CORSO;GUGLIELMO MARCONI;22;;;44.64632;7.32203;
PIE18-CN2;CNIC80600T;CARRU;12061;B841;CARRU';CN;VIA;PIPPO VACCHETTI;21;;;44.47836;7.87442;
PIE08-TO08;TOIC8AB00N;IC IVREA II;10015;E379;IVREA;TO;VIA;DORA BALTEA;1;;;45.4629;7.87463;
PIE25-VCO1;VBIC813002;IC RINA MONTI STELLA;28922;L746;VERBANIA;VB;VIA;GUGLIELMO MARCONI;6;PALLANZA;;45.92302;8.55189;
PIE20-CN4;CNIC85600V;ALBA CENTRO STORICO;12051;A124;ALBA;CN;VIA;CESARE BALBO;8;;;44.70129;8.03881;
PIE24-VC2;VCIC815008;IC DI GATTINARA;13045;D938;GATTINARA;VC;VIA;SAN ROCCO;1;;;45.61635;8.36891;
PIE20-CN4;CNPM04000X;ALBA - LEONARDO DA VINCI;12051;A124;ALBA;CN;PIAZZA;SAN FRANCESCO D'ASSISI;1;;;44.70221;8.03382;
PIE23-VC1;VCIS01300R;IIS CAVOUR;13100;L750;VERCELLI;VC;CORSO;ITALIA;42;;;45.32719;8.42906;
PIE06-TO06;TOIC87100D;IC RIVOLI - MATTEOTTI;10098;H355;RIVOLI;TO;VIA;MONTE BIANCO;23;;;45.07243;7.50478;
PIE13-AT1;ATIS003007;VITTORIO ALFIERI;14100;A479;ASTI;AT;CORSO;ALFIERI;367;;;44.89933;8.19977;
PIE08-TO08;TOIC89300A;IC STRAMBINO;10019;I970;STRAMBINO;TO;VIA;MODESTO PANETTI;18;;;45.38066;7.88203;http://www.icstrambino.gov.it/
PIE11-AL1;ALMM08400Q;VALENZA - G. PASCOLI;15048;L570;VALENZA;AL;VIALE;LUCIANO OLIVA;14;;;45.01031;8.64568;http://www.scuolamediapascoli.gov.it/
PIE11-AL1;ALEE03600B;1 CIRCOLO VALENZA;15048;L570;VALENZA;AL;VIALE;LUCIANO OLIVA;9/12;;;45.01033;8.64545;
PIE04-TO04;TOIS03600A;IIS ERASMO DA ROTTERDAM;10042;F889;NICHELINO;TO;VIA;VENTICINQUE APRILE;139;;;45.0017;7.6381;http://www.erasmonichelino.gov.it/
PIE04-TO04;TOIS04100T;IIS JAMES CLERK MAXWELL;10042;F889;NICHELINO;TO;VIA;VENTICINQUE APRILE;141;;;45.00154;7.63548;http://www.jcmaxwell.it/
PIE13-AT1;ATIS00700E;A. CASTIGLIANO;14100;A479;ASTI;AT;VIA;MARTORELLI;1;;;44.90077;8.20341;
PIE24-VC2;VCIC81300L;PADRE R. BARANZANO SERRAVALLE;13037;I663;SERRAVALLE SESIA;VC;PIAZZA;PRIMO MAGGIO;2;;;45.68624;8.31213;
PIE06-TO06;TOIC82400X;IC SANT'ANTONINO DI SUSA;10050;I296;SANT'ANTONINO DI SUSA;TO;VIA;A. ABEGG;19;;;45.10735;7.26985;
PIE01-TO01;TOPM120004;D.BERTI;10138;L219;TORINO;TO;VIA;DUCHESSA JOLANDA;27 BIS;;;45.07508;7.65879;
PIE08-TO08;TOIS024004;IIS GIOVANNI CENA;10015;E379;IVREA;TO;VIA;DORA BALTEA;3;;;45.46296;7.87621;
PIE14-AT2;ATIC817001;IC 2 ASTI;14100;A479;ASTI;AT;VIA;GOLTIERI;9;;;44.89976;8.19865;
PIE14-AT2;ATMM11300G;CPIA 1 ASTI;14100;A479;ASTI;AT;PIAZZA;LEONARDO DA VINCI;22;;;44.89976;8.19865;
PIE10-TO10;TOIC8AU009;IC CHIERI III -;10023;C627;CHIERI;TO;VIA;BONELLO;2;;;44.99875;7.80952;
PIE04-TO04;TOEE10500D;DD COLLEGNO III;10093;C860;COLLEGNO;TO;VIALE;DEI PARTIGIANI;36;;;45.09221;7.57086;
PIE07-TO07;TOIC89100P;IC BORGARO;10071;A990;BORGARO TORINESE;TO;VIA;CIRIE';52;;;45.15438;7.65658;
PIE11-AL1;ALIS009005;CESARE BALBO;15033;B885;CASALE MONFERRATO;AL;VIA;GALEOTTO DEL CARRETTO;1;;;45.13521;8.447;
PIE08-TO08;TOIC814009;IC PONT CANAVESE;10085;G826;PONT CANAVESE;TO;VIA;GUGLIELMO MARCONI;23BIS;;;45.42125;7.59352;
PIE02-TO02;TOIC8BE00Q;IC TORINO II;10152;L219;TORINO;TO;CORSO;GIULIO CESARE;26;;;45.08332;7.68806;
PIE21-NO1;NOMM188009;CPIA 1 NOVARA;28100;F952;NOVARA;NO;VIA;AQUILEIA;1;;;45.42639;8.62037;
PIE04-TO04;TOTF10000X;ETTORE MAJORANA;10095;E216;GRUGLIASCO;TO;VIA;FRANCESCO BARACCA;80;;;45.06771;7.58494;
PIE23-VC1;VCIC808005;R.STAMPA - VERCELLI;13100;L750;VERCELLI;VC;VIA;CAPPELLINA;4;;;45.32693;8.42776;
PIE18-CN2;CNIC813001;CEVA - A.MOMIGLIANO;12073;C589;CEVA;CN;VIA;LEOPOLDO MARENCO;1;;;44.38807;8.03489;
PIE17-CN1;CNIC804006;A.M.RIBERI - CARAGLIO;12023;B719;CARAGLIO;CN;CORSO;PAPA GIOVANNI XXIII;12;;;44.41556;7.43051;
PIE08-TO08;TOIC80600A;IC VISTRORIO;10080;M080;VISTRORIO;TO;VIA;GIUSEPPE GARIBALDI;28/1;;;45.44195;7.76992;
PIE01-TO01;TOSD02000L;A. PASSONI;10123;L219;TORINO;TO;VIA;DELLA ROCCA;7;;;45.06382;7.6934;
PIE23-VC1;VCIC807009;SERRA - CRESCENTINO;13044;D154;CRESCENTINO;VC;CORSO;ROMA;109;;;45.19153;8.10563;http://www.icserra.it/
PIE09-TO09;TOIC851008;IC GASSINO TORINESE;10090;D933;GASSINO TORINESE;TO;VIA;BORIONE;5;;;45.12515;7.82265;
PIE05-TO05;TOIC8AE005;IC PIOSSASCO I;10045;G691;PIOSSASCO;TO;VIA;VOLVERA;14;;;44.98717;7.4687;
PIE23-VC1;VCIC811001;LANINO - VERCELLI;13100;L750;VERCELLI;VC;CORSO;TANARO;3;;;45.31639;8.42957;
PIE26-VCO2;VBIS00400B;IS DALLA CHIESA-SPINELLI;28887;G062;OMEGNA;VB;VIA;COLOMBERA;8;;;45.88339;8.41284;
PIE11-AL1;ALIC832002;CASALE MONFERRATO1 - IC A.D'ALENCON;15033;B885;CASALE MONFERRATO;AL;VIA;GALEOTTO DEL CARRETTO;3;;;45.1347;8.44728;
PIE01-TO01;TOIC88300Q;IC RITA LEVI-MONTALCINI;10138;L219;TORINO;TO;VIA;PALMIERI;58;;;45.07183;7.6595;
PIE01-TO01;TOPS04000B;G. FERRARIS;10129;L219;TORINO;TO;CORSO;MONTEVECCHIO;67;;;45.06433;7.66275;
PIE14-AT2;ATTF01000T;ALESSANDRO ARTOM;14100;A479;ASTI;AT;VIA;G. ROMITA;42;;;44.9037;8.20684;
PIE02-TO02;TOTL02000C;G. GUARINI;10152;L219;TORINO;TO;VIA;SALERNO;60;;;45.08464;7.67738;
PIE20-CN4;CNIC82300G;GOVONE;12040;E118;GOVONE;CN;PIAZZA;ROMA;1;;;44.80727;8.10368;
PIE10-TO10;TOIC8AQ00L;IC CARIGNANO;10041;B777;CARIGNANO;TO;VIA;ALBERTO TAPPI;44;;;44.90699;7.67306;
PIE02-TO02;TOIC87700C;IC TORINO - REGIO PARCO;10152;L219;TORINO;TO;CORSO;REGIO PARCO;19;;;45.0771;7.69449;
PIE01-TO01;TOTD090008;ITC G. SOMMEILLER;10129;L219;TORINO;TO;CORSO;DUCA DEGLI ABRUZZI;20;;;45.06375;7.66389;
PIE22-NO2;NOIS00400B;IIS ENRICO FERMI;28041;A429;ARONA;NO;VIA;MONTENERO;15/A;;;45.75059;8.55484;http://iisenricofermiarona.it/
PIE24-VC2;VCIC802006;ARBORIO;13031;A358;ARBORIO;VC;CORSO;UMBERTO I;129;;;45.499;8.38954;
PIE09-TO09;TOIC8BB008;IC SETTIMO III;10036;I703;SETTIMO TORINESE;TO;VIA;ALLENDE;1;;;45.13761;7.75779;
PIE06-TO06;TOPS10000T;CHARLES DARWIN;10098;H355;RIVOLI;TO;VIALE;PAPA GIOVANNI XXIII;25;;;45.06891;7.50615;
PIE20-CN4;CNIS00700T;ALBA - G. GOVONE;12051;A124;ALBA;CN;VIA;TEOBALDO CALISSANO;8;;;44.69969;8.03646;
PIE17-CN1;CNIC80800D;IC SEBASTIANO GRANDIS BORGO SAN DALMAZZO;12011;B033;BORGO SAN DALMAZZO;CN;PIAZZA;DON RAIMONDO VIALE;9;;;44.32851;7.4889;
PIE06-TO06;TOIS02100L;O. ROMERO;10098;H355;RIVOLI;TO;VIALE;PAPA GIOVANNI XXIII;25;;;45.06894;7.50628;
PIE13-AT1;ATIC811002;IC DI SAN DAMIANO;14015;H811;SAN DAMIANO D'ASTI;AT;VIA;CISTERNA;13;;;44.83494;8.06113;
PIE09-TO09;TOIC85000C;IC CASTIGLIONE TORINESE;10090;C307;CASTIGLIONE TORINESE;TO;VIA;DON BROVERO;11;;;45.12061;7.81677;
PIE23-VC1;VCIS02100Q;AMEDEO AVOGADRO;13100;L750;VERCELLI;VC;CORSO;PALESTRO;29;;;45.32243;8.42847;
PIE07-TO07;TOIC8A300D;IC VENARIA I;10078;L727;VENARIA REALE;TO;PIAZZA;VITTORIO VENETO;2;;;45.13316;7.63273;
PIE01-TO01;TOPS340002;LS P. GOBETTI;10123;L219;TORINO;TO;VIA;MARIA VITTORIA;39BIS;;;45.06508;7.69259;
PIE22-NO2;NOEE01500Q;CD BORGOMANERO;28021;B019;BORGOMANERO;NO;PIAZZA;GIACOMO MATTEOTTI;1;;;45.68944;8.45699;
PIE12-AL2;ALMM09800N;CPIA 2 ALESSANDRIA;15067;F965;NOVI LIGURE;AL;VIA;URBANO RATTAZZI;15;;;44.76234;8.77839;
PIE05-TO05;TOIC845001;IC CAVOUR;10061;C404;CAVOUR;TO;PIAZZA;SAN MARTINO;2;;;44.78664;7.37595;
PIE20-CN4;CNIC820004;IC SANTA VITTORIA D'ALBA - BERTERO;12069;I316;SANTA VITTORIA D'ALBA;CN;VIA;SERAFINA;14BIS;CINZANO;;44.69239;7.92375;
PIE07-TO07;TOIC89700N;IC PIANEZZA - VIA MANZONI;10044;G559;PIANEZZA;TO;VIA;ALESSANDRO MANZONI;5;;;45.10198;7.55059;
PIE09-TO09;TOMM326007;CPIA 4 TORINO;10034;C665;CHIVASSO;TO;VIA;BLATTA;26/C;;;45.19621;7.88579;
PIE21-NO1;NOIS006003;IIS PIER LUIGI NERVI;28100;F952;NOVARA;NO;VIA;SAN BERNARDINO DA SIENA;10;;;45.44362;8.63162;
PIE09-TO09;TOIC8BC004;IC SETTIMO IV;10036;I703;SETTIMO TORINESE;TO;VIALE;PIAVE;20;;;45.13385;7.76892;
PIE11-AL1;ALIC824003;CASALE MONFERRATO 2 - IC F. NEGRI;15033;B885;CASALE MONFERRATO;AL;VIA;GONZAGA;21;;;45.13802;8.45805;
PIE14-AT2;ATIS004003;IIS G. PENNA;14100;A479;ASTI;AT;LOCALITA';VIATOSTO;54;;;44.92395;8.18703;
PIE12-AL2;ALIC82100G;OVADA S. PERTINI;15076;G197;OVADA;AL;VIA;DUCHESSA DI GALLIERA;2;;;44.6356;8.64321;
PIE01-TO01;TOIC815005;IC TORINO - TOMMASEO;10123;L219;TORINO;TO;VIA;DEI MILLE;15;;;45.06231;7.68819;
PIE23-VC1;VCIS00100E;L. LAGRANGIA;13100;L750;VERCELLI;VC;VIA;DUOMO;4;;;45.32707;8.42465;
PIE16-BI2;BIIC80600C;IC C.PAVESE - CANDELO-SANDIGLIANO;13876;H821;SANDIGLIANO;BI;VIA;CASALE;9;;;45.52326;8.08219;
PIE01-TO01;TOPC090009;V. GIOBERTI;10124;L219;TORINO;TO;VIA;SANT'OTTAVIO;9;;;45.06746;7.69357;
PIE09-TO09;TOIC8BH007;IC VOLPIANO;10088;M122;VOLPIANO;TO;VIALE;CARLO ALBERTO DALLA CHIESA;1;;;45.20474;7.77564;
PIE21-NO1;NOIC82400C;FORNARA - OSSOLA - NOVARA;28100;F952;NOVARA;NO;VIA;PREMUDA;SNC;;;45.43322;8.62964;
PIE07-TO07;TOIS06300P;IIS G. DALMASSO;10044;G559;PIANEZZA;TO;VIA;CLAVIERE;10;;;45.1047;7.54384;
PIE07-TO07;TOIS04900C;FERMI-GALILEI;10073;C722;CIRIE';TO;VIA;SAN GIOVANNI BOSCO;17;;;45.22878;7.60184;
PIE16-BI2;BIIC81700V;IC VALDENGO;13855;L556;VALDENGO;BI;PIAZZA;A. RIVETTI;4/A;;;45.56625;8.15378;
PIE11-AL1;ALIC81800Q;FELIZZANO - GIOVANNI PASCOLI;15023;D528;FELIZZANO;AL;PIAZZA;PAOLO ERCOLE;6;;;44.898;8.43562;http://www.icpascoli-felizzano.gov.it/
PIE22-NO2;NOIC812006;IC GIUSEPPE CURIONI - ROMAGNANO SESIA;28078;H502;ROMAGNANO SESIA;NO;VICOLO;ASILO;3;;;45.63501;8.38374;http://www.gcurioni.gov.it/
PIE18-CN2;CNIC811009;IC SAN MICHELE MONDOVI';12080;I037;SAN MICHELE MONDOVI';CN;VIA;DELLE SCUOLE;1;CAPOLUOGO;;44.37727;7.90984;http://www.icsanmichelemondovi.gov.it/
PIE12-AL2;ALIC83500D;IC TORTONA B;15057;L304;TORTONA;AL;VIALE;KENNEDY;14;;;44.8886;8.85771;
PIE08-TO08;TOPS01000G;A. GRAMSCI;10015;E379;IVREA;TO;VIA;ALBERTON;10 A;;;45.46199;7.87986;
PIE12-AL2;ALIC810005;IC SPIGNO MONFERRATO;15018;I901;SPIGNO MONFERRATO;AL;VIALE;MICHELE BAROSIO;1;;;44.54301;8.33182;http://www.istitutocomprensivospigno.it/
PIE02-TO02;TORC090001;ALBE STEINER;10152;L219;TORINO;TO;LUNGO DORA;AGRIGENTO;20/A;;;45.08218;7.68407;
PIE14-AT2;ATIC81300N;IC CANELLI;14053;B594;CANELLI;AT;PIAZZA;DELLA REPUBBLICA;3;;;44.71786;8.28607;http://www.istitutocomprensivodicanelli.gov.it/
PIE17-CN1;CNIC84300R;CENTALLO-VILLAFALLETTO;12044;C466;CENTALLO;CN;VIALE;DELLE SCUOLE;8;;;44.49724;7.58391;
PIE24-VC2;VCIC81200R;IC MARTIRI DELLA LIBERTA';13017;H108;QUARONA;VC;PIAZZA;COMBATTENTI D'ITALIA;21/A;;;45.7627719;8.2692493;http://www.icquarona.it/
PIE21-NO1;NOIC82700X;MARGHERITA HACK;28100;F952;NOVARA;NO;BALUARDO;PARTIGIANI;4;;;45.44908;8.62363;
PIE09-TO09;TOIC8BG00B;IC SAN BENIGNO CANAVESE;10080;H775;SAN BENIGNO CANAVESE;TO;CORSO;ITALIA;34;;;45.22634;7.77928;
PIE13-AT1;ATEE00100D;IST. SCOLASTICA I CIRCOLO ASTI;14100;A479;ASTI;AT;CORSO;DANTE ALIGHIERI;88;;;44.9044;8.20344;
PIE20-CN4;CNIC818004;SOMMARIVA PERNO;12040;I823;SOMMARIVA PERNO;CN;VIA;SAN GIOVANNI;12;;;44.74617;7.90411;
PIE15-BI1;BIIC801009;IC CAVAGLIA';13881;C363;CAVAGLIA';BI;VIA;G. PELLA;SNC;;;45.40454;8.09505;
PIE21-NO1;NOVC010008;C. ALBERTO;28100;F952;NOVARA;NO;VIA;DELL'ARCHIVIO;6;;;45.44839;8.6243;
PIE10-TO10;TOPS18000P;A. MONTI;10023;C627;CHIERI;TO;VIA;MONTESSORI;2;;;45.01251;7.8361;
PIE21-NO1;NOPM010005;LICEO DELLE SCIENZE UMANE C.T. BELLINI;28100;F952;NOVARA;NO;BALUARDO;LA MARMORA;10;;;45.44629;8.62745;
PIE11-AL1;ALMM09700T;CPIA 1 ALESSANDRIA;15033;B885;CASALE MONFERRATO;AL;VIA;OLIVIERO CAPELLO;3;;;45.13653;8.45732;
PIE01-TO01;TOIS05100C;IIS A. AVOGADRO;10124;L219;TORINO;TO;CORSO;SAN MAURIZIO;8;;;45.07104;7.69288;
PIE05-TO05;TOIC843009;IC LUSERNA SAN GIOVANNI;10062;E758;LUSERNA SAN GIOVANNI;TO;VIA;TEGAS;2;;;44.8153;7.24466;
PIE13-AT1;ATIC80100B;IC CASTELNUOVO-COCCONATO-MONTIGLIO;14022;C232;CASTELNUOVO DON BOSCO;AT;VIA;MERCADILLO;24;;;45.0426;7.96355;http://www.iccastelnuovodonbosco.it/
PIE10-TO10;TOIS02800B;IIS B. VITTONE;10023;C627;CHIERI;TO;VIA;MONTESSORI;4-6;;;45.01202;7.83647;
PIE25-VCO1;VBIC80900A;IC GALILEO GALILEI;28883;E153;GRAVELLONA TOCE;VB;VIA;PARIANI;25;;;45.92947;8.44039;
PIE24-VC2;VCIS00700D;D'ADDA;13019;L669;VARALLO;VC;VIA;MARIO TANCREDI ROSSI;4;;;45.81586;8.24757;
PIE21-NO1;NOSL010001;FELICE CASORATI;28100;F952;NOVARA;NO;VIA;GREPPI;18;;;45.44781;8.62455;
PIE21-NO1;NOTD09000R;ITE MOSSOTTI;28100;F952;NOVARA;NO;VIALE;CURTATONE;5;;;45.44245;8.62971;
PIE05-TO05;TOIC84200D;IC BRICHERASIO;10060;B171;BRICHERASIO;TO;VIA;CESARE BOLLEA;3;;;44.82279;7.30344;
PIE20-CN4;CNIC82100X;IC DI MONTA';12046;F385;MONTA';CN;CORSO;ALCIDE DE GASPERI;15;;;44.81337;7.953;
PIE12-AL2;ALPS050005;EDOARDO AMALDI;15067;F965;NOVI LIGURE;AL;VIA;GOFFREDO MAMELI;9;;;44.76391;8.78075;
PIE06-TO06;TOTD05000T;G. GALILEI;10051;A518;AVIGLIANA;TO;VIA;G.B. NICOL;35;;;45.07981;7.40489;
PIE15-BI1;BIIC80900X;IC OCCHIEPPO INFERIORE - E. SCHIAPARELLI;13897;F992;OCCHIEPPO INFERIORE;BI;VIA;ROMA;7;;;45.55313;8.02148;http://www.icocchieppoinferiore.it/
PIE07-TO07;TOIS00700A;IIS T. D'ORIA;10073;C722;CIRIE';TO;VIA;PREVER;13;;;45.22446;7.60457;
PIE19-CN3;CNIC838009;CAVALLERMAGGIORE;12030;C376;CAVALLERMAGGIORE;CN;PIAZZA;ALFRED NOBEL;1;;;44.70843;7.68406;
PIE07-TO07;TOIC828007;IC FIANO;10070;D562;FIANO;TO;VIA;CASTELLO;7;;;45.21964;7.51832;
PIE09-TO09;TOIS031007;IIS 8 MARZO;10036;I703;SETTIMO TORINESE;TO;VIA;LEINI';54;;;45.1407;7.75894;
PIE18-CN2;CNIS01100D;CEVA - G. BARUFFI;12073;C589;CEVA;CN;PIAZZA;GALLIANO;3;;;44.38467;8.03322;
PIE05-TO05;TOPC06000D;G.F. PORPORATO;10064;G674;PINEROLO;TO;VIA;BRIGNONE;2;;;44.88704;7.33517;
PIE12-AL2;ALIS00100E;IIS GUIDO PARODI;15011;A052;ACQUI TERME;AL;VIA;ALCIDE DE GASPERI;66;;;44.67475;8.47492;
PIE23-VC1;VCIS012001;IIS GALILEO FERRARIS;13100;L750;VERCELLI;VC;PIAZZA;VITTORIA;3;;;45.3147;8.42354;
PIE07-TO07;TOIC89200E;IC CASELLE TORINESE;10072;B960;CASELLE TORINESE;TO;VIA;GUIBERT;3;;;45.17675;7.64645;
PIE10-TO10;TOIC886007;IC LA LOGGIA;10040;E423;LA LOGGIA;TO;VIA;DELLA CHIESA;45;;;44.95743;7.66289;
PIE04-TO04;TOIC8AH00L;IC ORBASSANO I;10043;G087;ORBASSANO;TO;PIAZZA;EDMONDO DE AMICIS;12;;;45.00821;7.5425;
PIE25-VCO1;VBIC81600D;IC ALTO VERBANO;28818;H030;PREMENO;VB;VIALE;MARSAGLIA;7;;;45.97583;8.58976;
PIE20-CN4;CNIC81900X;IC LA MORRA;12064;E430;LA MORRA;CN;VIA;CARLO ALBERTO;6;;;44.63742;7.93377;
PIE04-TO04;TOIC8BF00G;IC NICHELINO IV;10042;F889;NICHELINO;TO;PIAZZA;ALDO MORO;1;;;44.99472;7.63623;http://www.icnichelino4.gov.it/
PIE11-AL1;ALIS01300R;LEARDI;15033;B885;CASALE MONFERRATO;AL;VIA;LEARDI;1;;;45.13385;8.45263;
PIE13-AT1;ATIS00600P;G. A. GIOBERT;14100;A479;ASTI;AT;VIA;G. RORETO;32;;;44.90551;8.20266;
PIE11-AL1;ALTF080003;ASCANIO SOBRERO;15033;B885;CASALE MONFERRATO;AL;VIA;CANDIANI D'OLIVOLA;19;;;45.13933;8.45619;http://www.sobrero.gov.it/
PIE21-NO1;NOTF03000B;ITI OMAR;28100;F952;NOVARA;NO;BALUARDO;LA MARMORA;12;;;45.44432;8.62735;
PIE11-AL1;ALIC816004;CASTELLAZZO BORMIDA-POCHETTINO;15073;C148;CASTELLAZZO BORMIDA;AL;VIA;BOIDI;42;;;44.84542;8.57769;
PIE22-NO2;NOIC80600V;VARALLO POMBIA;28040;L670;VARALLO POMBIA;NO;VIA;CIRCONVALLAZIONE;46;;;45.66655;8.62821;http://ic-varallo-pombia.gov.it/
PIE14-AT2;ATIC81800R;IC 1 ASTI;14100;A479;ASTI;AT;VIA;SARDEGNA;5;;;44.90194;8.21634;
PIE06-TO06;TOIC8AG00R;IC AVIGLIANA;10051;A518;AVIGLIANA;TO;VIA;CAVALIERI DI VITTORIO VENETO;3;;;45.08359;7.39667;
PIE22-NO2;NOIC821001;GIOVANNI XXIII - ARONA;28041;A429;ARONA;NO;VIA;MONTE ROSA;36;;;45.75439;8.5533;
PIE21-NO1;NOIC81400T;IC GUIDO DA BIANDRATE;28061;A844;BIANDRATE;NO;VIA;GREPPI;12;;;45.4533148;8.4632289;http://www.icbiandrate.gov.it/
PIE15-BI1;BIIC808004;IC MONGRANDO;13888;F369;MONGRANDO;BI;VIA;QUINTINO SELLA;4;;;45.51905;8.00707;
PIE13-AT1;ATMM003004;ANGELO BROFFERIO - ASTI;14100;A479;ASTI;AT;CORSO;VENTICINQUE APRILE;2;;;44.90463;8.19825;
PIE18-CN2;CNIC80700N;IC AUGUSTA BAGIENNORUM;12041;A779;BENE VAGIENNA;CN;VIALE;RIMEMBRANZA;2;;;44.54419;7.82862;
PIE11-AL1;ALEE037007;2 CIRCOLO VALENZA;15048;L570;VALENZA;AL;VIA;P. DEMICHELIS;2;;;45.01315;8.63947;
PIE17-CN1;CNIC85000X;BUSCA GIOSUE CARDUCCI;12022;B285;BUSCA;CN;VIA;CARLETTO MICHELIS;2;;;44.51398;7.47347;
PIE09-TO09;TOIC85300X;IC BRANDIZZO;10032;B121;BRANDIZZO;TO;VIA;ALBA;10;;;45.17709;7.84613;
PIE22-NO2;NOMM184002;IST. SEC. I GR PIERO GOBETTI;28021;B019;BORGOMANERO;NO;VIALE;DANTE ALIGHIERI;13;;;45.7001;8.45725;
PIE20-CN4;CNIS019004;ALBA - L. EINAUDI;12051;A124;ALBA;CN;VIA;P. FERRERO;20;;;44.69642;8.02765;
PIE06-TO06;TOIC89800D;IC ALPIGNANO;10091;A222;ALPIGNANO;TO;VIA;PIANEZZA;31;;;45.09916;7.52934;
PIE26-VCO2;VBIS00100X;IS GOBETTI;28887;G062;OMEGNA;VB;VIA;UNDICI SETTEMBRE;11;;;45.87734;8.40959;
PIE21-NO1;NOIC82800Q;ACHILLE BOROLI;28100;F952;NOVARA;NO;VIA;MAGALOTTI;13;;;45.44235;8.60391;
PIE05-TO05;TOIC836006;IC NONE;10060;F931;NONE;TO;PIAZZA;VIGO;3;;;44.933493;7.540749;
PIE07-TO07;TOIC831003;IC SAN MAURIZIO CANAVESE;10077;I024;SAN MAURIZIO CANAVESE;TO;VIA;GENERAL CABRERA;12;;;45.21071;7.62705;
PIE13-AT1;ATPS01000Q;F. VERCELLI;14100;A479;ASTI;AT;VIA;DELL'ARAZZERIA;6;;;44.91341;8.20672;
PIE17-CN1;CNIC840009;CERVASCA;12010;C547;CERVASCA;CN;PIAZZA;BERNARDI;SNC;;;44.38342;7.46895;
PIE21-NO1;NOPS010004;ALESSANDRO ANTONELLI;28100;F952;NOVARA;NO;VIA;TOSCANA;20;;;45.43197;8.60996;
PIE09-TO09;TOIS01900L;IIS G. FERRARIS;10036;I703;SETTIMO TORINESE;TO;VIA;DON GNOCCHI;2/A;;;45.14194;7.76048;
PIE20-CN4;CNIC82200Q;IC CANALE;12043;B573;CANALE;CN;VIALE;DEL PESCO;5;CAPOLUOGO;;44.7954;7.99497;
PIE17-CN1;CNIC839005;BERNEZZO - DUCCIO GALIMBERTI;12010;A805;BERNEZZO;CN;PIAZZA;SOLIDARIETA' E VOLONTARIATO;3;;;44.38401;7.43879;
PIE20-CN4;CNPS030008;ALBA - LEONARDO COCITO;12051;A124;ALBA;CN;CORSO;EUROPA;2;;;44.69617;8.03107;
PIE19-CN3;CNIC83000P;IC RACCONIGI - B. MUZZONE;12035;H150;RACCONIGI;CN;VIA;SACCO E VANZETTI;1;;;44.768267;7.675913;
PIE22-NO2;NOTF02000R;LEONARDO DA VINCI-S.COMM.LE ANNESSA;28021;B019;BORGOMANERO;NO;VIA;ALDO MORO;13;;;45.69491;8.45869;
PIE23-VC1;VCIS01900Q;FRANCIS LOMBARDI;13100;L750;VERCELLI;VC;VIA;LUIGI SERENO;27;;;45.32749;8.41507;
PIE05-TO05;TOIC80400P;IC VILLAR PEROSA;10069;M014;VILLAR PEROSA;TO;VIA;QUATTRO NOVEMBRE;2;;;44.92122;7.24836;
PIE22-NO2;NOPS04000X;G.GALILEI;28021;B019;BORGOMANERO;NO;VIA;ALDO MORO;13;;;45.69531;8.45877;
PIE14-AT2;ATIC815009;IC DELLE QUATTRO VALLI;14045;E295;INCISA SCAPACCINO;AT;PIAZZA;FERRARO;10;;;44.80857;8.38039;
PIE11-AL1;ALIC82200B;TICINETO - DON MILANI;15040;L165;TICINETO;AL;VIA;GOFFREDO MAMELI;28;;;45.09698;8.54943;
PIE10-TO10;TOIC85600B;IC CAMBIANO;10021;B462;CAMBIANO;TO;VIALE;ROMA;5;;;44.97047;7.777;
PIE26-VCO2;VBIC817009;IC FILIPPO MARIA BELTRAMI;28887;G062;OMEGNA;VB;VIA;EDMONDO DE AMICIS;7;;;45.87678;8.41065;
PIE12-AL2;ALIC836009;IC ACQUI TERME 1;15011;A052;ACQUI TERME;AL;VIA;VENTI SETTEMBRE;20;;;44.67355;8.46739;
PIE05-TO05;TOIC84700L;IC VIGONE;10067;L898;VIGONE;TO;VIA;DON MILANI;2;;;44.84296;7.4888;
PIE23-VC1;VCIC809001;FERRARI - VERCELLI;13100;L750;VERCELLI;VC;VIA;CERRONE;17;;;45.32673;8.41612;
PIE21-NO1;NOIC80900A;IC P. RAMATI - CERANO;28065;C483;CERANO;NO;VIALE;MARCHETTI;20;;;45.4112;8.78533;http://www.ramati.gov.it/
PIE12-AL2;ALIS00700D;CARLO BARLETTI;15076;G197;OVADA;AL;VIA;PASTORINO;12;;;44.63064;8.64385;
PIE20-CN4;CNIC854007;ALBA QUARTIERE PIAVE S.CASSIANO;12051;A124;ALBA;CN;CORSO;EUROPA;134;;;44.6949;8.02698;
PIE06-TO06;TOIC899009;IC BUSSOLENO-VIA D.C.PRINETTO;10053;B297;BUSSOLENO;TO;VIA;DON CARLO PRINETTO;2;;;45.13746;7.14296;
PIE24-VC2;VCIC81700X;IC VARALLO;13019;L669;VARALLO;VC;PIAZZA;GAUDENZIO FERRARI;3;;;45.81691;8.25225;http://www.icvarallo.it/
PIE09-TO09;TOIC8AW001;IC SAN MAURO II;10099;I030;SAN MAURO TORINESE;TO;VIA;SPERANZA;40;;;45.107;7.75654;
PIE13-AT1;ATIC80400V;IC MONCALVO - RITA LEVI MONTALCINI;14036;F336;MONCALVO;AT;VIA;ABELE TRUFFA;11;;;45.05011;8.26176;http://www.scuole.moncalvo.asti.it/
PIE25-VCO1;VBPS02000P;LICEO CL-SC-SC UMANE B. CAVALIERI;28922;L746;VERBANIA;VB;VIA;MADONNA DI CAMPAGNA;18;PALLANZA;;45.93074;8.54883;
PIE12-AL2;ALIC83000A;IC NOVI LIGURE 2;15067;F965;NOVI LIGURE;AL;VIA;A. FERRANDO SCRIVIA;24;;;44.75913;8.789;
PIE21-NO1;NOPC07000L;LICEO CLASSICO E LINGUISTICO C.ALBERTO;28100;F952;NOVARA;NO;BALUARDO;LA MARMORA;8/C;;;45.44216;8.62553;
PIE10-TO10;TOIC8AV005;IC CHIERI I;10023;C627;CHIERI;TO;PIAZZA;SILVIO PELLICO;6;;;45.00969;7.82228;
PIE01-TO01;TOPC070004;M. D'AZEGLIO;10121;L219;TORINO;TO;VIA;PARINI;8;;;45.06468;7.6755;
PIE25-VCO1;VBIS006003;IS MAGGIA;28838;I976;STRESA;VB;VIALE;MAINARDI;5;;;45.88476;8.53537;
PIE10-TO10;TOIS032003;IIS ETTORE MAJORANA;10024;F335;MONCALIERI;TO;VIA;ADA NEGRI;14;;;44.99541;7.70245;
PIE11-AL1;ALIC83300T;IC CASALE MONFERRATO 3;15033;B885;CASALE MONFERRATO;AL;CORSO;GIUSEPPE VERDI;6;;;45.12527;8.45184;
PIE14-AT2;ATIC808006;IC MONTEGROSSO;14048;F527;MONTEGROSSO D'ASTI;AT;VIA;RE UMBERTO;29;;;44.82072;8.23562;
PIE21-NO1;NOTF040002;G.FAUSER;28100;F952;NOVARA;NO;VIA;RICCI;14;;;45.43437;8.60912;
PIE22-NO2;NOIC817009;GAUDENZIO FERRARI - MOMO;28015;F317;MOMO;NO;VIA;GUGLIELMO MARCONI;9;;;45.57445;8.55766;
PIE10-TO10;TOIC83200V;IC TROFARELLO;10028;L445;TROFARELLO;TO;VIA;VENTIQUATTRO MAGGIO;48;;;44.98172;7.74308;
PIE22-NO2;NOIC81100A;GIOVANNI XXIII - GRIGNASCO;28075;E177;GRIGNASCO;NO;LARGO;GAUDENZIO FERRARI;3;;;45.68262;8.34127;
PIE04-TO04;TOIC837002;IC BRUINO;10090;B216;BRUINO;TO;PIAZZA;DONATORI DI SANGUE;1;;;45.020787;7.471472;http://www.icbruino.gov.it/
PIE01-TO01;TOEE04700P;DD TORINO - PACCHIOTTI;10122;L219;TORINO;TO;VIA;DEL CARMINE;27;;;45.07691;7.67194;
PIE13-AT1;ATIC810006;VILLAFRANCA D'ASTI;14018;L945;VILLAFRANCA D'ASTI;AT;PIAZZA;G. GORIA;1;;;44.91404;8.02983;
PIE20-CN4;CNIC83700D;B.FENOGLIO - NEIVE;12052;F863;NEIVE;CN;VIA;CESARE PAVESE;5;;;44.72153;8.11947;
PIE10-TO10;TOIC887003;IC MONCALIERI - NASI;10024;F335;MONCALIERI;TO;VIA;PANNUNZIO;11;BORGATA NASI;;44.99494;7.70113;
PIE21-NO1;NOIC83000Q;IC C. MUSSO;28069;L356;TRECATE;NO;VIA;ANDANTE;14;;;45.43894;8.74161;
PIE05-TO05;TOIC83800T;IC VOLVERA;10040;M133;VOLVERA;TO;VIA;GIUSEPPE GARIBALDI;1;;;44.95301;7.50843;
PIE13-AT1;ATIC80600E;IC VILLANOVA D'ASTI;14019;L984;VILLANOVA D'ASTI;AT;VIA;ZABERT;14;;;44.94488;7.93649;http://www.icvillanovasti.gov.it/
PIE24-VC2;VCRH040008;IPSSAR G. PASTORE;13019;L669;VARALLO;VC;VIA;D'ADDA;33;;;45.81923;8.24949;http://www.ipssar-gpastore.gov.it/
PIE04-TO04;TOIS03400P;IIS CURIE - VITTORINI;10095;E216;GRUGLIASCO;TO;CORSO;GIUSEPPE ALLAMANO;120;;;45.05169;7.60096;
PIE22-NO2;NOIC80700P;P. FORNARA - CARPIGNANO SESIA;28064;B823;CARPIGNANO SESIA;NO;VIA;E. PIAZZA;5;;;45.53493;8.42214;
PIE09-TO09;TOIC8A900C;IC SETTIMO I;10036;I703;SETTIMO TORINESE;TO;VIA;BUONARROTI;8;;;45.13924;7.77325;
PIE13-AT1;ATEE00500R;DD V CIRCOLO;14100;A479;ASTI;AT;CORSO;VENTICINQUE APRILE;151;;;44.90761;8.19023;
PIE25-VCO1;VBIC81000E;IC FOGAZZARO;28831;A725;BAVENO;VB;VIA;BRERA;12;;;45.91059;8.49912;
PIE01-TO01;TOMM28400A;TORINO - VIA REVEL;10121;L219;TORINO;TO;VIA;REVEL;8;;;45.06916;7.6699;
PIE18-CN2;CNIC846008;DOGLIANI;12063;D314;DOGLIANI;CN;VIA;DOMENICO GHIGLIANO;38;;;44.53255;7.9496;
PIE22-NO2;NOIC81600D;E.S.VERJUS - OLEGGIO;28047;G019;OLEGGIO;NO;VIALE;PAGANINI;21;;;45.60001;8.63879;
PIE21-NO1;NOIC82900G;IC RACHEL BEHAR;28069;L356;TRECATE;NO;VIA;MEZZANO;41;;;45.43429;8.74864;
PIE14-AT2;ATIC816005;CARLO ALBERTO DALLA CHIESA - NIZZA MONFERRATO;14049;F902;NIZZA MONFERRATO;AT;VIA;CAMPOLUNGO;SNC;;;44.76925;8.36338;
PIE05-TO05;TOIC8AD009;IC PIOSSASCO II;10045;G691;PIOSSASCO;TO;VIA;CUMIANA;2;;;44.98516;7.44221;
PIE22-NO2;NOEE035001;CD OLEGGIO;28047;G019;OLEGGIO;NO;VIA;ANTONIO GRAMSCI;77;;;45.59865;8.63875;
PIE12-AL2;ALIC809001;RIVALTA BORMIDA - NORBERTO BOBBIO;15010;H334;RIVALTA BORMIDA;AL;VIA;QUATTRO NOVEMBRE;2;;;44.71139;8.55079;
PIE08-TO08;TOIC8AR00C;IC PAVONE CANAVESE;10018;G392;PAVONE CANAVESE;TO;VIA;VIGNALE;2;;;45.43395;7.85465;
PIE23-VC1;VCIC810005;FERRARIS - VERCELLI;13100;L750;VERCELLI;VC;PIAZZA;CESARE BATTISTI;6;;;45.31995;8.41913;
PIE21-NO1;NOIC83100G;IC BOTTACCHI;28100;F952;NOVARA;NO;VIA;JUVARRA;7/A;;;45.43422;8.61562;
PIE05-TO05;TOIC874001;IC VINOVO;10048;M060;VINOVO;TO;VIA;EDMONDO DE AMICIS;5;;;44.95006;7.62978;
PIE09-TO09;TOIC852004;IC MONTANARO;10017;F422;MONTANARO;TO;VIA;TRIESTE;2;;;45.23376;7.85719;
PIE01-TO01;TOPS020006;A. VOLTA;10122;L219;TORINO;TO;VIA;JUVARRA;14;;;45.07424;7.67148;
PIE06-TO06;TOIS059003;IIS G. NATTA;10098;H355;RIVOLI;TO;VIA;VENTI SETTEMBRE;14/A;;;45.06693;7.53098;
PIE19-CN3;CNIC83100E;MORETTA;12033;F723;MORETTA;CN;VIA;MARTIRI DELLA LIBERTA';10;;;44.7602;7.53734;
PIE22-NO2;NOIC804007;IC SAN GIULIO;28017;I025;SAN MAURIZIO D'OPAGLIO;NO;VIA;TORCHIO;10;;;45.77267;8.38954;http://www.icsangiulio.gov.it/
PIE04-TO04;TOIC89600T;IC BEINASCO - GRAMSCI;10092;A734;BEINASCO;TO;VIA;MIRAFIORI;25;;;45.021305;7.5902081;http://www.beinascogramsci.gov.it/
PIE04-TO04;TOIC84100N;IC RIVALTA;10040;H335;RIVALTA DI TORINO;TO;VIA;PIOSSASCO;57;;;45.02675;7.51608;
PIE24-VC2;VCIS017004;G. FERRARI;13011;B041;BORGOSESIA;VC;VIALE;VARALLO;153;;;45.72741;8.26511;
PIE01-TO01;TOIS052008;IIS P. BOSELLI;10121;L219;TORINO;TO;VIA;MONTECUCCOLI;12;;;45.07039;7.67107;
PIE01-TO01;TOIS037006;IIS SELLA-AALTO-LAGRANGE;10121;L219;TORINO;TO;VIA;MONTECUCCOLI;12;;;45.07017;7.67119;
PIE20-CN4;CNIC82400B;C.PAVESE -SANTO STEFANO BELBO;12058;I367;SANTO STEFANO BELBO;CN;VIA;MONTEGRAPPA;6;;;44.70882;8.22982;
PIE09-TO09;TOIC86300E;IC BRUSASCO;10020;B225;BRUSASCO;TO;VIA;DELLE SCUOLE;2;;;45.15653;8.06002;http://www.icbrusasco.it/
PIE12-AL2;ALIC831006;IC NOVI LIGURE 3;15067;F965;NOVI LIGURE;AL;VIA;GIUSEPPE VERDI;113;;;44.76597;8.80208;
PIE10-TO10;TOIC858003;IC SANTENA;10026;I327;SANTENA;TO;VIA;TETTI AGOSTINO;31;;;44.94897;7.78347;
PIE25-VCO1;VBIC81100A;IC C. REBORA;28838;I976;STRESA;VB;VIALE;VIRGILIO;1;;;45.88348;8.5302;
PIE10-TO10;TOIC85500G;IC PINO TORINESE;10025;G678;PINO TORINESE;TO;VIA;ERNESTO MOLINA;21;;;45.04395;7.77098;
PIE06-TO06;TOIC823004;IC SANT'AMBROGIO;10057;I258;SANT'AMBROGIO DI TORINO;TO;VIA;PRIMO MAGGIO;13;;;45.10136;7.35752;
PIE23-VC1;VCIC80100A;IC ASIGLIANO;13032;A466;ASIGLIANO VERCELLESE;VC;PIAZZA;VITTORIO VENETO;SNC;;;45.26107;8.4072;http://www.icasigliano.gov.it/
PIE06-TO06;TOIC8AF001;IC BUTTIGLIERA ALTA-ROSTA;10090;B305;BUTTIGLIERA ALTA;TO;PIAZZA;DEL POPOLO;8;;;45.06892;7.43455;
PIE12-AL2;ALIS017004;CIAMPINI - BOCCARDO;15067;F965;NOVI LIGURE;AL;VIA;GIUSEPPE VERDI;44;;;44.76108;8.79294;
PIE21-NO1;NORC01000L;ISTITUTO PROFESSIONALE G. RAVIZZA;28100;F952;NOVARA;NO;BALUARDO;MASSIMO D'AZEGLIO;3;;;45.44162;8.62094;
PIE17-CN1;CNIC84800X;IC CUNEO OLTRESTURA;12100;D205;CUNEO;CN;PIAZZALE;DELLA BATTAGLIA;1;FRAZIONE MADONNA DELL'OLMO;;44.41263;7.54897;http://www.iccuneooltrestura.it/
PIE07-TO07;TOIC829003;IC BALANGERO;10070;A587;BALANGERO;TO;PIAZZA;DIECI MARTIRI;3;;;45.27285;7.52034;
PIE20-CN4;CNIC81400R;IC BOSSOLASCO-MURAZZANO;12060;B084;BOSSOLASCO;CN;PIAZZA;CADUTI PER LA PATRIA;1;;;44.52817;8.04993;http://www.icbossolascomurazzano.it/
PIE11-AL1;ALIC811001;IC CERRINA;15020;C531;CERRINA;AL;VIA;DANTE ALIGHIERI;21;;;45.11648;8.21179;*
PIE11-AL1;ALIC823007;IC OZZANO - VIGNALE;15049;L881;VIGNALE MONFERRATO;AL;VIA;ALESSANDRO MANZONI;38/3;;;45.00913;8.39496;http://www.icozzanovignale.it/
PIE12-AL2;ALIC829006;IC NOVI LIGURE 1;15067;F965;NOVI LIGURE;AL;CORSO;ITALIA;58;;;44.76435;8.7896;
PIE20-CN4;CNIC84900Q;DIANO D'ALBA - CAPOLUOGO;12055;D291;DIANO D'ALBA;CN;PIAZZA;UMBERTO I;25/A;;;44.65197;8.02773;
PIE22-NO2;NOIC80800E;GIOVANNI PASCOLI;28024;E120;GOZZANO;NO;VIA;PER AUZATE;6;;;45.74683;8.43362;http://www.icpascoligozzano.gov.it/
PIE16-BI2;BIIC81800P;IC VIGLIANO BIELLESE;13856;L880;VIGLIANO BIELLESE;BI;VIA;DANTE ALIGHIERI;6;;;45.56159;8.10591;
PIE20-CN4;CNIC81600C;IC CORTEMILIA-SALICETO;12074;D062;CORTEMILIA;CN;VIA;SALINO;1;;;44.58345;8.19136;http://iccortemilia-saliceto.gov.it/
PIE12-AL2;ALIC807009;SERRAVALLE SCRIVIA-M.BENEDICTA;15069;I657;SERRAVALLE SCRIVIA;AL;VIA;SAN ROCCO;1;;;44.72146;8.85408;
PIE20-CN4;CNIC855003;ALBA QUARTIERE MORETTA;12051;A124;ALBA;CN;VIA;EDMONDO DE AMICIS;1;;;44.68644;8.03601;
PIE20-CN4;CNMM162004;CPIA 2 ALBA - MONDOVI';12051;A124;ALBA;CN;VIA;ACCADEMIA;6;;;44.68644;8.03601;
PIE22-NO2;NOIC819001;DEL VERGANTE - INVORIO;28045;E314;INVORIO;NO;VIA;PULAZZINI;15;;;45.75703;8.48576;
PIE12-AL2;ALIC80600D;GAVI - C. DE SIMONI;15066;D944;GAVI;AL;VIA;CAVALIERI DI VITTORIO VENETO;26;;;44.68491;8.81164;
PIE05-TO05;TOIS01400D;IIS I. PORRO;10064;G674;PINEROLO;TO;VIALE;J. KENNEDY;30;;;44.88879;7.34398;
PIE21-NO1;NOIC826004;DUCA D'AOSTA - NOVARA;28100;F952;NOVARA;NO;BALUARDO;MASSIMO D'AZEGLIO;1;;;45.4416;8.61992;
PIE19-CN3;CNIC826003;IC VENASCA-COSTIGLIOLE SALUZZO;12020;L729;VENASCA;CN;VIA;GUGLIELMO MARCONI;4;;;44.56249;7.39586;http://www.icvenasca-costigliole.gov.it/
PIE15-BI1;BIIC807008;IC GAGLIANICO;13894;D848;GAGLIANICO;BI;PIAZZA;AVIGNONE;1;;;45.536905;8.077168;
PIE16-BI2;BIIC802005;IC PRAY;13867;G974;PRAY;BI;VIA;BARTOLOMEO SELLA;74;;;45.67543;8.21615;http://istitutocomprensivodipray.gov.it/
PIE01-TO01;TOVC01000Q;UMBERTO I;10122;L219;TORINO;TO;VIA;BLIGNY;1 BIS;;;45.07487;7.67619;
PIE07-TO07;TOIC82600G;IC LANZO TORINESE;10074;E445;LANZO TORINESE;TO;VIA;VITTORIO VENETO;2;;;45.27574;7.47544;
PIE09-TO09;TOIC86100V;IC LEINI';10040;E518;LEINI';TO;VIA;PROVANA;22;;;45.18519;7.71582;
PIE05-TO05;TOIS038002;IIS MICHELE BUNIVA;10064;G674;PINEROLO;TO;VIA;DEI ROCHIS;25;;;44.88817;7.34713;
PIE01-TO01;TOIS053004;IIS V. BOSSO - A. MONTI;10121;L219;TORINO;TO;VIA;MEUCCI;9;;;45.06976;7.67463;
PIE14-AT2;ATIC81200T;COSTIGLIOLE;14055;D119;COSTIGLIOLE D'ASTI;AT;PIAZZA;MEDICI;1;;;44.78592;8.18193;
PIE19-CN3;CNIC817008;IC ARPINO SOMMARIVA DEL BOSCO';12048;I822;SOMMARIVA DEL BOSCO;CN;VIA;GIANSANA;37;;;44.77431;7.77677;
PIE05-TO05;TOIS044009;PREVER;10064;G674;PINEROLO;TO;VIA;CARLO MERLO;2;;;44.88863;7.34934;
PIE14-AT2;ATIS00200B;N. PELLATI;14049;F902;NIZZA MONFERRATO;AT;VIA;QUATTRO NOVEMBRE;40;;;44.77217;8.35618;
PIE12-AL2;ALIC81200R;IC VIGUZZOLO;15058;L904;VIGUZZOLO;AL;VIA;GUGLIELMO MARCONI;62;;;44.90505;8.92567;
PIE26-VCO2;VBIC812006;IC BAGNOLINI;28844;L906;VILLADOSSOLA;VB;VIA;BOLDRINI;28;;;46.06875;8.25988;
PIE12-AL2;ALIC81900G;CASTELNUOVO-BASSA VALLE SCRIVIA;15053;C243;CASTELNUOVO SCRIVIA;AL;VIALE;QUATTRO NOVEMBRE;63;;;44.97753;8.87659;
PIE12-AL2;ALIS003006;RITA LEVI MONTALCINI;15011;A052;ACQUI TERME;AL;CORSO;CARLO MARX;2;;;44.67946;8.46061;
PIE22-NO2;NOIC820005;IC E. MONTALE - GATTICO;28013;D937;GATTICO;NO;VIALE;DEL BORGARINO;20;;;45.71064;8.51757;
PIE05-TO05;TOIC83500A;IC AIRASCA;10060;A109;AIRASCA;TO;VIA;STAZIONE;37;;;44.91987;7.48506;
PIE20-CN4;CNIS012009;ALBA - UMBERTO I;12051;A124;ALBA;CN;CORSO;ENOTRIA;2;;;44.68874;8.03347;
PIE05-TO05;TOPS070007;M. CURIE;10064;G674;PINEROLO;TO;VIA;DEI ROCHIS;12;;;44.88971;7.34654;
PIE12-AL2;ALIC837005;IC ACQUI TERME 2;15011;A052;ACQUI TERME;AL;VIA;SAN DEFENDENTE;29;;;44.67959;8.46206;
PIE07-TO07;TOIC830007;IC NOLE;10076;F925;NOLE;TO;VIA;MARTIRI DELLA LIBERTA';16;;;45.24215;7.56918;
PIE07-TO07;TOIS023008;IIS F. ALBERT;10074;E445;LANZO TORINESE;TO;VIA;TESSO;7;;;45.27585;7.47825;
PIE14-AT2;ATIC809002;ROCCHETTA TANARO;14030;H468;ROCCHETTA TANARO;AT;VIA;NICOLA SARDI;29;;;44.85854;8.34584;
PIE09-TO09;TOEE122007;DD LEINI' - A. FRANK;10040;E518;LEINI';TO;PIAZZA;MADONNINA;1;;;45.18709;7.71781;
PIE09-TO09;TOIC8AX00R;IC SAN MAURO I;10099;I030;SAN MAURO TORINESE;TO;VIA;MARTIRI DELLA LIBERTA';60;;;45.10208;7.76535;
PIE06-TO06;TOIC8BL004;IC RIVOLI - GOZZANO;10098;H355;RIVOLI;TO;VIA;ALBA;15;;;45.06567;7.52321;
PIE10-TO10;TOIC8AT00D;IC CHIERI IV;10023;C627;CHIERI;TO;VIA;MONTI;SNC;REGIONE GIONCHETO;;45.0029;7.82768;
PIE06-TO06;TOIC8A800L;IC RIVOLI - GOBETTI;10098;H355;RIVOLI;TO;VIA;GATTI;18;;;45.06656;7.52337;
